(kicad_sch (version 20211123) (generator eeschema)

  (uuid 1cb22080-0f59-4c18-a6e6-8685ef44ec53)

  (paper "A4")

  (title_block
    (title "SIDLOC Transceiver")
    (company "Libre Space Foundation")
    (comment 1 "CERN OHL version 2 - Strongly Reciprocal")
  )

  (lib_symbols
    (symbol "Connector:Conn_Coaxial" (pin_names (offset 1.016) hide) (in_bom yes) (on_board yes)
      (property "Reference" "J" (id 0) (at 0.254 3.048 0)
        (effects (font (size 1.27 1.27)))
      )
      (property "Value" "Conn_Coaxial" (id 1) (at 2.921 0 90)
        (effects (font (size 1.27 1.27)))
      )
      (property "Footprint" "" (id 2) (at 0 0 0)
        (effects (font (size 1.27 1.27)) hide)
      )
      (property "Datasheet" " ~" (id 3) (at 0 0 0)
        (effects (font (size 1.27 1.27)) hide)
      )
      (property "ki_keywords" "BNC SMA SMB SMC LEMO coaxial connector CINCH RCA" (id 4) (at 0 0 0)
        (effects (font (size 1.27 1.27)) hide)
      )
      (property "ki_description" "coaxial connector (BNC, SMA, SMB, SMC, Cinch/RCA, LEMO, ...)" (id 5) (at 0 0 0)
        (effects (font (size 1.27 1.27)) hide)
      )
      (property "ki_fp_filters" "*BNC* *SMA* *SMB* *SMC* *Cinch* *LEMO*" (id 6) (at 0 0 0)
        (effects (font (size 1.27 1.27)) hide)
      )
      (symbol "Conn_Coaxial_0_1"
        (arc (start -1.778 -0.508) (mid 0.2311 -1.8066) (end 1.778 0)
          (stroke (width 0.254) (type default) (color 0 0 0 0))
          (fill (type none))
        )
        (polyline
          (pts
            (xy -2.54 0)
            (xy -0.508 0)
          )
          (stroke (width 0) (type default) (color 0 0 0 0))
          (fill (type none))
        )
        (polyline
          (pts
            (xy 0 -2.54)
            (xy 0 -1.778)
          )
          (stroke (width 0) (type default) (color 0 0 0 0))
          (fill (type none))
        )
        (circle (center 0 0) (radius 0.508)
          (stroke (width 0.2032) (type default) (color 0 0 0 0))
          (fill (type none))
        )
        (arc (start 1.778 0) (mid 0.2099 1.8101) (end -1.778 0.508)
          (stroke (width 0.254) (type default) (color 0 0 0 0))
          (fill (type none))
        )
      )
      (symbol "Conn_Coaxial_1_1"
        (pin passive line (at -5.08 0 0) (length 2.54)
          (name "In" (effects (font (size 1.27 1.27))))
          (number "1" (effects (font (size 1.27 1.27))))
        )
        (pin passive line (at 0 -5.08 90) (length 2.54)
          (name "Ext" (effects (font (size 1.27 1.27))))
          (number "2" (effects (font (size 1.27 1.27))))
        )
      )
    )
    (symbol "Connector:TestPoint" (pin_numbers hide) (pin_names (offset 0.762) hide) (in_bom yes) (on_board yes)
      (property "Reference" "TP" (id 0) (at 0 6.858 0)
        (effects (font (size 1.27 1.27)))
      )
      (property "Value" "TestPoint" (id 1) (at 0 5.08 0)
        (effects (font (size 1.27 1.27)))
      )
      (property "Footprint" "" (id 2) (at 5.08 0 0)
        (effects (font (size 1.27 1.27)) hide)
      )
      (property "Datasheet" "~" (id 3) (at 5.08 0 0)
        (effects (font (size 1.27 1.27)) hide)
      )
      (property "ki_keywords" "test point tp" (id 4) (at 0 0 0)
        (effects (font (size 1.27 1.27)) hide)
      )
      (property "ki_description" "test point" (id 5) (at 0 0 0)
        (effects (font (size 1.27 1.27)) hide)
      )
      (property "ki_fp_filters" "Pin* Test*" (id 6) (at 0 0 0)
        (effects (font (size 1.27 1.27)) hide)
      )
      (symbol "TestPoint_0_1"
        (circle (center 0 3.302) (radius 0.762)
          (stroke (width 0) (type default) (color 0 0 0 0))
          (fill (type none))
        )
      )
      (symbol "TestPoint_1_1"
        (pin passive line (at 0 0 90) (length 2.54)
          (name "1" (effects (font (size 1.27 1.27))))
          (number "1" (effects (font (size 1.27 1.27))))
        )
      )
    )
    (symbol "Connector_Generic:Conn_01x03" (pin_names (offset 1.016) hide) (in_bom yes) (on_board yes)
      (property "Reference" "J" (id 0) (at 0 5.08 0)
        (effects (font (size 1.27 1.27)))
      )
      (property "Value" "Conn_01x03" (id 1) (at 0 -5.08 0)
        (effects (font (size 1.27 1.27)))
      )
      (property "Footprint" "" (id 2) (at 0 0 0)
        (effects (font (size 1.27 1.27)) hide)
      )
      (property "Datasheet" "~" (id 3) (at 0 0 0)
        (effects (font (size 1.27 1.27)) hide)
      )
      (property "ki_keywords" "connector" (id 4) (at 0 0 0)
        (effects (font (size 1.27 1.27)) hide)
      )
      (property "ki_description" "Generic connector, single row, 01x03, script generated (kicad-library-utils/schlib/autogen/connector/)" (id 5) (at 0 0 0)
        (effects (font (size 1.27 1.27)) hide)
      )
      (property "ki_fp_filters" "Connector*:*_1x??_*" (id 6) (at 0 0 0)
        (effects (font (size 1.27 1.27)) hide)
      )
      (symbol "Conn_01x03_1_1"
        (rectangle (start -1.27 -2.413) (end 0 -2.667)
          (stroke (width 0.1524) (type default) (color 0 0 0 0))
          (fill (type none))
        )
        (rectangle (start -1.27 0.127) (end 0 -0.127)
          (stroke (width 0.1524) (type default) (color 0 0 0 0))
          (fill (type none))
        )
        (rectangle (start -1.27 2.667) (end 0 2.413)
          (stroke (width 0.1524) (type default) (color 0 0 0 0))
          (fill (type none))
        )
        (rectangle (start -1.27 3.81) (end 1.27 -3.81)
          (stroke (width 0.254) (type default) (color 0 0 0 0))
          (fill (type background))
        )
        (pin passive line (at -5.08 2.54 0) (length 3.81)
          (name "Pin_1" (effects (font (size 1.27 1.27))))
          (number "1" (effects (font (size 1.27 1.27))))
        )
        (pin passive line (at -5.08 0 0) (length 3.81)
          (name "Pin_2" (effects (font (size 1.27 1.27))))
          (number "2" (effects (font (size 1.27 1.27))))
        )
        (pin passive line (at -5.08 -2.54 0) (length 3.81)
          (name "Pin_3" (effects (font (size 1.27 1.27))))
          (number "3" (effects (font (size 1.27 1.27))))
        )
      )
    )
    (symbol "Connector_Generic:Conn_01x06" (pin_names (offset 1.016) hide) (in_bom yes) (on_board yes)
      (property "Reference" "J" (id 0) (at 0 7.62 0)
        (effects (font (size 1.27 1.27)))
      )
      (property "Value" "Conn_01x06" (id 1) (at 0 -10.16 0)
        (effects (font (size 1.27 1.27)))
      )
      (property "Footprint" "" (id 2) (at 0 0 0)
        (effects (font (size 1.27 1.27)) hide)
      )
      (property "Datasheet" "~" (id 3) (at 0 0 0)
        (effects (font (size 1.27 1.27)) hide)
      )
      (property "ki_keywords" "connector" (id 4) (at 0 0 0)
        (effects (font (size 1.27 1.27)) hide)
      )
      (property "ki_description" "Generic connector, single row, 01x06, script generated (kicad-library-utils/schlib/autogen/connector/)" (id 5) (at 0 0 0)
        (effects (font (size 1.27 1.27)) hide)
      )
      (property "ki_fp_filters" "Connector*:*_1x??_*" (id 6) (at 0 0 0)
        (effects (font (size 1.27 1.27)) hide)
      )
      (symbol "Conn_01x06_1_1"
        (rectangle (start -1.27 -7.493) (end 0 -7.747)
          (stroke (width 0.1524) (type default) (color 0 0 0 0))
          (fill (type none))
        )
        (rectangle (start -1.27 -4.953) (end 0 -5.207)
          (stroke (width 0.1524) (type default) (color 0 0 0 0))
          (fill (type none))
        )
        (rectangle (start -1.27 -2.413) (end 0 -2.667)
          (stroke (width 0.1524) (type default) (color 0 0 0 0))
          (fill (type none))
        )
        (rectangle (start -1.27 0.127) (end 0 -0.127)
          (stroke (width 0.1524) (type default) (color 0 0 0 0))
          (fill (type none))
        )
        (rectangle (start -1.27 2.667) (end 0 2.413)
          (stroke (width 0.1524) (type default) (color 0 0 0 0))
          (fill (type none))
        )
        (rectangle (start -1.27 5.207) (end 0 4.953)
          (stroke (width 0.1524) (type default) (color 0 0 0 0))
          (fill (type none))
        )
        (rectangle (start -1.27 6.35) (end 1.27 -8.89)
          (stroke (width 0.254) (type default) (color 0 0 0 0))
          (fill (type background))
        )
        (pin passive line (at -5.08 5.08 0) (length 3.81)
          (name "Pin_1" (effects (font (size 1.27 1.27))))
          (number "1" (effects (font (size 1.27 1.27))))
        )
        (pin passive line (at -5.08 2.54 0) (length 3.81)
          (name "Pin_2" (effects (font (size 1.27 1.27))))
          (number "2" (effects (font (size 1.27 1.27))))
        )
        (pin passive line (at -5.08 0 0) (length 3.81)
          (name "Pin_3" (effects (font (size 1.27 1.27))))
          (number "3" (effects (font (size 1.27 1.27))))
        )
        (pin passive line (at -5.08 -2.54 0) (length 3.81)
          (name "Pin_4" (effects (font (size 1.27 1.27))))
          (number "4" (effects (font (size 1.27 1.27))))
        )
        (pin passive line (at -5.08 -5.08 0) (length 3.81)
          (name "Pin_5" (effects (font (size 1.27 1.27))))
          (number "5" (effects (font (size 1.27 1.27))))
        )
        (pin passive line (at -5.08 -7.62 0) (length 3.81)
          (name "Pin_6" (effects (font (size 1.27 1.27))))
          (number "6" (effects (font (size 1.27 1.27))))
        )
      )
    )
    (symbol "Connector_Generic:Conn_01x14" (pin_names (offset 1.016) hide) (in_bom yes) (on_board yes)
      (property "Reference" "J" (id 0) (at 0 17.78 0)
        (effects (font (size 1.27 1.27)))
      )
      (property "Value" "Conn_01x14" (id 1) (at 0 -20.32 0)
        (effects (font (size 1.27 1.27)))
      )
      (property "Footprint" "" (id 2) (at 0 0 0)
        (effects (font (size 1.27 1.27)) hide)
      )
      (property "Datasheet" "~" (id 3) (at 0 0 0)
        (effects (font (size 1.27 1.27)) hide)
      )
      (property "ki_keywords" "connector" (id 4) (at 0 0 0)
        (effects (font (size 1.27 1.27)) hide)
      )
      (property "ki_description" "Generic connector, single row, 01x14, script generated (kicad-library-utils/schlib/autogen/connector/)" (id 5) (at 0 0 0)
        (effects (font (size 1.27 1.27)) hide)
      )
      (property "ki_fp_filters" "Connector*:*_1x??_*" (id 6) (at 0 0 0)
        (effects (font (size 1.27 1.27)) hide)
      )
      (symbol "Conn_01x14_1_1"
        (rectangle (start -1.27 -17.653) (end 0 -17.907)
          (stroke (width 0.1524) (type default) (color 0 0 0 0))
          (fill (type none))
        )
        (rectangle (start -1.27 -15.113) (end 0 -15.367)
          (stroke (width 0.1524) (type default) (color 0 0 0 0))
          (fill (type none))
        )
        (rectangle (start -1.27 -12.573) (end 0 -12.827)
          (stroke (width 0.1524) (type default) (color 0 0 0 0))
          (fill (type none))
        )
        (rectangle (start -1.27 -10.033) (end 0 -10.287)
          (stroke (width 0.1524) (type default) (color 0 0 0 0))
          (fill (type none))
        )
        (rectangle (start -1.27 -7.493) (end 0 -7.747)
          (stroke (width 0.1524) (type default) (color 0 0 0 0))
          (fill (type none))
        )
        (rectangle (start -1.27 -4.953) (end 0 -5.207)
          (stroke (width 0.1524) (type default) (color 0 0 0 0))
          (fill (type none))
        )
        (rectangle (start -1.27 -2.413) (end 0 -2.667)
          (stroke (width 0.1524) (type default) (color 0 0 0 0))
          (fill (type none))
        )
        (rectangle (start -1.27 0.127) (end 0 -0.127)
          (stroke (width 0.1524) (type default) (color 0 0 0 0))
          (fill (type none))
        )
        (rectangle (start -1.27 2.667) (end 0 2.413)
          (stroke (width 0.1524) (type default) (color 0 0 0 0))
          (fill (type none))
        )
        (rectangle (start -1.27 5.207) (end 0 4.953)
          (stroke (width 0.1524) (type default) (color 0 0 0 0))
          (fill (type none))
        )
        (rectangle (start -1.27 7.747) (end 0 7.493)
          (stroke (width 0.1524) (type default) (color 0 0 0 0))
          (fill (type none))
        )
        (rectangle (start -1.27 10.287) (end 0 10.033)
          (stroke (width 0.1524) (type default) (color 0 0 0 0))
          (fill (type none))
        )
        (rectangle (start -1.27 12.827) (end 0 12.573)
          (stroke (width 0.1524) (type default) (color 0 0 0 0))
          (fill (type none))
        )
        (rectangle (start -1.27 15.367) (end 0 15.113)
          (stroke (width 0.1524) (type default) (color 0 0 0 0))
          (fill (type none))
        )
        (rectangle (start -1.27 16.51) (end 1.27 -19.05)
          (stroke (width 0.254) (type default) (color 0 0 0 0))
          (fill (type background))
        )
        (pin passive line (at -5.08 15.24 0) (length 3.81)
          (name "Pin_1" (effects (font (size 1.27 1.27))))
          (number "1" (effects (font (size 1.27 1.27))))
        )
        (pin passive line (at -5.08 -7.62 0) (length 3.81)
          (name "Pin_10" (effects (font (size 1.27 1.27))))
          (number "10" (effects (font (size 1.27 1.27))))
        )
        (pin passive line (at -5.08 -10.16 0) (length 3.81)
          (name "Pin_11" (effects (font (size 1.27 1.27))))
          (number "11" (effects (font (size 1.27 1.27))))
        )
        (pin passive line (at -5.08 -12.7 0) (length 3.81)
          (name "Pin_12" (effects (font (size 1.27 1.27))))
          (number "12" (effects (font (size 1.27 1.27))))
        )
        (pin passive line (at -5.08 -15.24 0) (length 3.81)
          (name "Pin_13" (effects (font (size 1.27 1.27))))
          (number "13" (effects (font (size 1.27 1.27))))
        )
        (pin passive line (at -5.08 -17.78 0) (length 3.81)
          (name "Pin_14" (effects (font (size 1.27 1.27))))
          (number "14" (effects (font (size 1.27 1.27))))
        )
        (pin passive line (at -5.08 12.7 0) (length 3.81)
          (name "Pin_2" (effects (font (size 1.27 1.27))))
          (number "2" (effects (font (size 1.27 1.27))))
        )
        (pin passive line (at -5.08 10.16 0) (length 3.81)
          (name "Pin_3" (effects (font (size 1.27 1.27))))
          (number "3" (effects (font (size 1.27 1.27))))
        )
        (pin passive line (at -5.08 7.62 0) (length 3.81)
          (name "Pin_4" (effects (font (size 1.27 1.27))))
          (number "4" (effects (font (size 1.27 1.27))))
        )
        (pin passive line (at -5.08 5.08 0) (length 3.81)
          (name "Pin_5" (effects (font (size 1.27 1.27))))
          (number "5" (effects (font (size 1.27 1.27))))
        )
        (pin passive line (at -5.08 2.54 0) (length 3.81)
          (name "Pin_6" (effects (font (size 1.27 1.27))))
          (number "6" (effects (font (size 1.27 1.27))))
        )
        (pin passive line (at -5.08 0 0) (length 3.81)
          (name "Pin_7" (effects (font (size 1.27 1.27))))
          (number "7" (effects (font (size 1.27 1.27))))
        )
        (pin passive line (at -5.08 -2.54 0) (length 3.81)
          (name "Pin_8" (effects (font (size 1.27 1.27))))
          (number "8" (effects (font (size 1.27 1.27))))
        )
        (pin passive line (at -5.08 -5.08 0) (length 3.81)
          (name "Pin_9" (effects (font (size 1.27 1.27))))
          (number "9" (effects (font (size 1.27 1.27))))
        )
      )
    )
    (symbol "Mechanical:MountingHole_Pad" (pin_numbers hide) (pin_names (offset 1.016) hide) (in_bom yes) (on_board yes)
      (property "Reference" "H" (id 0) (at 0 6.35 0)
        (effects (font (size 1.27 1.27)))
      )
      (property "Value" "MountingHole_Pad" (id 1) (at 0 4.445 0)
        (effects (font (size 1.27 1.27)))
      )
      (property "Footprint" "" (id 2) (at 0 0 0)
        (effects (font (size 1.27 1.27)) hide)
      )
      (property "Datasheet" "~" (id 3) (at 0 0 0)
        (effects (font (size 1.27 1.27)) hide)
      )
      (property "ki_keywords" "mounting hole" (id 4) (at 0 0 0)
        (effects (font (size 1.27 1.27)) hide)
      )
      (property "ki_description" "Mounting Hole with connection" (id 5) (at 0 0 0)
        (effects (font (size 1.27 1.27)) hide)
      )
      (property "ki_fp_filters" "MountingHole*Pad*" (id 6) (at 0 0 0)
        (effects (font (size 1.27 1.27)) hide)
      )
      (symbol "MountingHole_Pad_0_1"
        (circle (center 0 1.27) (radius 1.27)
          (stroke (width 1.27) (type default) (color 0 0 0 0))
          (fill (type none))
        )
      )
      (symbol "MountingHole_Pad_1_1"
        (pin input line (at 0 -2.54 90) (length 2.54)
          (name "1" (effects (font (size 1.27 1.27))))
          (number "1" (effects (font (size 1.27 1.27))))
        )
      )
    )
    (symbol "lsf-kicad:PQ9-Connector" (in_bom yes) (on_board yes)
      (property "Reference" "PQ" (id 0) (at -3.81 12.7 0)
        (effects (font (size 1.27 1.27)))
      )
      (property "Value" "PQ9-Connector" (id 1) (at 7.62 12.7 0)
        (effects (font (size 1.27 1.27)))
      )
      (property "Footprint" "lsf-kicad-lib:PQ9" (id 2) (at 10.16 -12.7 0)
        (effects (font (size 1.27 1.27)) hide)
      )
      (property "Datasheet" "https://libre.space/pq9ish" (id 3) (at 12.7 5.08 0)
        (effects (font (size 1.27 1.27)) hide)
      )
      (property "ki_keywords" "PQ9 pocketcube" (id 4) (at 0 0 0)
        (effects (font (size 1.27 1.27)) hide)
      )
      (property "ki_description" "Pocket Cube template for PQ9ISH format" (id 5) (at 0 0 0)
        (effects (font (size 1.27 1.27)) hide)
      )
      (property "ki_fp_filters" "PQ9*" (id 6) (at 0 0 0)
        (effects (font (size 1.27 1.27)) hide)
      )
      (symbol "PQ9-Connector_0_1"
        (rectangle (start -6.35 11.43) (end 7.62 -11.43)
          (stroke (width 0.254) (type default) (color 0 0 0 0))
          (fill (type background))
        )
      )
      (symbol "PQ9-Connector_1_1"
        (pin bidirectional line (at -10.16 10.16 0) (length 3.81)
          (name "1-Wire/Opt1" (effects (font (size 1.27 1.27))))
          (number "1" (effects (font (size 1.27 1.27))))
        )
        (pin bidirectional line (at -10.16 7.62 0) (length 3.81)
          (name "D-/Opt2" (effects (font (size 1.27 1.27))))
          (number "2" (effects (font (size 1.27 1.27))))
        )
        (pin bidirectional line (at -10.16 5.08 0) (length 3.81)
          (name "D+" (effects (font (size 1.27 1.27))))
          (number "3" (effects (font (size 1.27 1.27))))
        )
        (pin passive line (at 0 -15.24 90) (length 3.81) hide
          (name "GND" (effects (font (size 1.27 1.27))))
          (number "4" (effects (font (size 1.27 1.27))))
        )
        (pin power_out line (at -10.16 2.54 0) (length 3.81)
          (name "V1" (effects (font (size 1.27 1.27))))
          (number "5" (effects (font (size 1.27 1.27))))
        )
        (pin power_out line (at -10.16 0 0) (length 3.81)
          (name "V2" (effects (font (size 1.27 1.27))))
          (number "6" (effects (font (size 1.27 1.27))))
        )
        (pin power_out line (at -10.16 -2.54 0) (length 3.81)
          (name "V3" (effects (font (size 1.27 1.27))))
          (number "7" (effects (font (size 1.27 1.27))))
        )
        (pin power_out line (at -10.16 -5.08 0) (length 3.81)
          (name "V4" (effects (font (size 1.27 1.27))))
          (number "8" (effects (font (size 1.27 1.27))))
        )
        (pin power_in line (at 0 -15.24 90) (length 3.81)
          (name "GND" (effects (font (size 1.27 1.27))))
          (number "9" (effects (font (size 1.27 1.27))))
        )
      )
    )
    (symbol "power:GND" (power) (pin_names (offset 0)) (in_bom yes) (on_board yes)
      (property "Reference" "#PWR" (id 0) (at 0 -6.35 0)
        (effects (font (size 1.27 1.27)) hide)
      )
      (property "Value" "GND" (id 1) (at 0 -3.81 0)
        (effects (font (size 1.27 1.27)))
      )
      (property "Footprint" "" (id 2) (at 0 0 0)
        (effects (font (size 1.27 1.27)) hide)
      )
      (property "Datasheet" "" (id 3) (at 0 0 0)
        (effects (font (size 1.27 1.27)) hide)
      )
      (property "ki_keywords" "power-flag" (id 4) (at 0 0 0)
        (effects (font (size 1.27 1.27)) hide)
      )
      (property "ki_description" "Power symbol creates a global label with name \"GND\" , ground" (id 5) (at 0 0 0)
        (effects (font (size 1.27 1.27)) hide)
      )
      (symbol "GND_0_1"
        (polyline
          (pts
            (xy 0 0)
            (xy 0 -1.27)
            (xy 1.27 -1.27)
            (xy 0 -2.54)
            (xy -1.27 -1.27)
            (xy 0 -1.27)
          )
          (stroke (width 0) (type default) (color 0 0 0 0))
          (fill (type none))
        )
      )
      (symbol "GND_1_1"
        (pin power_in line (at 0 0 270) (length 0) hide
          (name "GND" (effects (font (size 1.27 1.27))))
          (number "1" (effects (font (size 1.27 1.27))))
        )
      )
    )
    (symbol "power:PWR_FLAG" (power) (pin_numbers hide) (pin_names (offset 0) hide) (in_bom yes) (on_board yes)
      (property "Reference" "#FLG" (id 0) (at 0 1.905 0)
        (effects (font (size 1.27 1.27)) hide)
      )
      (property "Value" "PWR_FLAG" (id 1) (at 0 3.81 0)
        (effects (font (size 1.27 1.27)))
      )
      (property "Footprint" "" (id 2) (at 0 0 0)
        (effects (font (size 1.27 1.27)) hide)
      )
      (property "Datasheet" "~" (id 3) (at 0 0 0)
        (effects (font (size 1.27 1.27)) hide)
      )
      (property "ki_keywords" "power-flag" (id 4) (at 0 0 0)
        (effects (font (size 1.27 1.27)) hide)
      )
      (property "ki_description" "Special symbol for telling ERC where power comes from" (id 5) (at 0 0 0)
        (effects (font (size 1.27 1.27)) hide)
      )
      (symbol "PWR_FLAG_0_0"
        (pin power_out line (at 0 0 90) (length 0)
          (name "pwr" (effects (font (size 1.27 1.27))))
          (number "1" (effects (font (size 1.27 1.27))))
        )
      )
      (symbol "PWR_FLAG_0_1"
        (polyline
          (pts
            (xy 0 0)
            (xy 0 1.27)
            (xy -1.016 1.905)
            (xy 0 2.54)
            (xy 1.016 1.905)
            (xy 0 1.27)
          )
          (stroke (width 0) (type default) (color 0 0 0 0))
          (fill (type none))
        )
      )
    )
  )

  (junction (at 143.51 87.63) (diameter 0) (color 0 0 0 0)
    (uuid 06504f27-ee46-444b-8691-f17f4c7e81db)
  )
  (junction (at 146.05 85.09) (diameter 0) (color 0 0 0 0)
    (uuid 3ddcc97a-80d2-4945-9f96-8f736d9b5b09)
  )
  (junction (at 254 33.02) (diameter 0) (color 0 0 0 0)
    (uuid 5e7554b8-6584-4c79-946d-ef17bbd7c5d8)
  )
  (junction (at 148.59 80.01) (diameter 0) (color 0 0 0 0)
    (uuid 8e69d661-c49f-419a-9bbd-d3a4241f537f)
  )
  (junction (at 269.24 52.07) (diameter 0) (color 0 0 0 0)
    (uuid c3b581b7-19f5-4870-942a-dc3f2bf4b9fd)
  )

  (no_connect (at 22.86 177.8) (uuid 40296833-887e-4926-94a4-5b3db697842a))
  (no_connect (at 22.86 191.77) (uuid 40296833-887e-4926-94a4-5b3db697842b))
  (no_connect (at 57.15 177.8) (uuid 40296833-887e-4926-94a4-5b3db697842c))
  (no_connect (at 57.15 191.77) (uuid 40296833-887e-4926-94a4-5b3db697842d))
  (no_connect (at 191.77 53.34) (uuid 4c271ec7-9717-4a41-88f3-99ece63ff155))
  (no_connect (at 191.77 55.88) (uuid 4c271ec7-9717-4a41-88f3-99ece63ff156))
  (no_connect (at 191.77 58.42) (uuid 4c271ec7-9717-4a41-88f3-99ece63ff157))
  (no_connect (at 257.81 35.56) (uuid d90f2b49-5a95-4126-8809-b5037ebe7bda))
  (no_connect (at 257.81 27.94) (uuid d90f2b49-5a95-4126-8809-b5037ebe7bdb))
  (no_connect (at 257.81 30.48) (uuid d90f2b49-5a95-4126-8809-b5037ebe7bdc))
  (no_connect (at 257.81 25.4) (uuid d90f2b49-5a95-4126-8809-b5037ebe7bdd))
  (no_connect (at 257.81 40.64) (uuid d90f2b49-5a95-4126-8809-b5037ebe7bde))
  (no_connect (at 257.81 38.1) (uuid d90f2b49-5a95-4126-8809-b5037ebe7bdf))

  (wire (pts (xy 107.95 63.5) (xy 152.4 63.5))
    (stroke (width 0) (type default) (color 0 0 0 0))
    (uuid 00541858-577f-4de1-927f-fabaee506d1a)
  )
  (wire (pts (xy 107.95 80.01) (xy 148.59 80.01))
    (stroke (width 0) (type default) (color 0 0 0 0))
    (uuid 0a609074-ee24-4a81-9bb1-68f589fd3d63)
  )
  (wire (pts (xy 269.24 52.07) (xy 267.97 52.07))
    (stroke (width 0) (type default) (color 0 0 0 0))
    (uuid 0b479157-ef51-4297-95fd-a35638c6e81d)
  )
  (wire (pts (xy 259.08 30.48) (xy 257.81 30.48))
    (stroke (width 0) (type default) (color 0 0 0 0))
    (uuid 0b8dd51a-648a-4565-8635-dcc78e38b84b)
  )
  (wire (pts (xy 180.34 91.44) (xy 180.34 93.98))
    (stroke (width 0) (type default) (color 0 0 0 0))
    (uuid 151c7074-3ed1-4648-a0f2-8a15bda1c964)
  )
  (wire (pts (xy 107.95 100.33) (xy 132.08 100.33))
    (stroke (width 0) (type default) (color 0 0 0 0))
    (uuid 195828b1-b90a-4af2-934f-095afa0cde02)
  )
  (wire (pts (xy 57.15 176.53) (xy 57.15 177.8))
    (stroke (width 0) (type default) (color 0 0 0 0))
    (uuid 1bc25762-a4f7-4a9a-8b82-0fbff108056b)
  )
  (wire (pts (xy 107.95 92.71) (xy 120.65 92.71))
    (stroke (width 0) (type default) (color 0 0 0 0))
    (uuid 1f1a21da-db13-4178-846d-ec1371c02059)
  )
  (wire (pts (xy 129.54 113.03) (xy 152.4 113.03))
    (stroke (width 0) (type default) (color 0 0 0 0))
    (uuid 2023b55e-122c-4f2f-a782-d36528961b79)
  )
  (wire (pts (xy 22.86 190.5) (xy 22.86 191.77))
    (stroke (width 0) (type default) (color 0 0 0 0))
    (uuid 248ddcd1-c414-42fc-a7c2-f114408a9b7c)
  )
  (wire (pts (xy 134.62 97.79) (xy 134.62 107.95))
    (stroke (width 0) (type default) (color 0 0 0 0))
    (uuid 250269ac-5b93-4063-ab42-c5028b77d9e3)
  )
  (wire (pts (xy 187.96 91.44) (xy 187.96 93.98))
    (stroke (width 0) (type default) (color 0 0 0 0))
    (uuid 25cb67e6-bdf0-4545-9a70-dbf114b1cfc3)
  )
  (wire (pts (xy 107.95 53.34) (xy 152.4 53.34))
    (stroke (width 0) (type default) (color 0 0 0 0))
    (uuid 2737ac5c-4f8a-4529-aa87-ccff2ac9feef)
  )
  (wire (pts (xy 137.16 104.14) (xy 152.4 104.14))
    (stroke (width 0) (type default) (color 0 0 0 0))
    (uuid 294323d0-d603-4886-9eb6-15eea011512d)
  )
  (wire (pts (xy 107.95 55.88) (xy 120.65 55.88))
    (stroke (width 0) (type default) (color 0 0 0 0))
    (uuid 2f537f6a-7598-446c-8c5e-17fee638e886)
  )
  (wire (pts (xy 107.95 97.79) (xy 134.62 97.79))
    (stroke (width 0) (type default) (color 0 0 0 0))
    (uuid 2f84e702-d197-4d15-99d0-e226b68ed7c5)
  )
  (wire (pts (xy 148.59 96.52) (xy 148.59 80.01))
    (stroke (width 0) (type default) (color 0 0 0 0))
    (uuid 300f1af7-ae84-4f66-aaed-cec3d68b3380)
  )
  (wire (pts (xy 107.95 90.17) (xy 152.4 90.17))
    (stroke (width 0) (type default) (color 0 0 0 0))
    (uuid 337722c0-7030-4228-bc91-bfd6663cb5af)
  )
  (wire (pts (xy 148.59 96.52) (xy 152.4 96.52))
    (stroke (width 0) (type default) (color 0 0 0 0))
    (uuid 37b0004a-ed13-4719-8c0a-2627c18e1f21)
  )
  (wire (pts (xy 259.08 25.4) (xy 257.81 25.4))
    (stroke (width 0) (type default) (color 0 0 0 0))
    (uuid 3d7abd36-c737-435f-9ba5-3dcf32c3156f)
  )
  (wire (pts (xy 22.86 176.53) (xy 22.86 177.8))
    (stroke (width 0) (type default) (color 0 0 0 0))
    (uuid 3dab8f12-b915-4d4d-bc9f-ebf6f791fccb)
  )
  (wire (pts (xy 107.95 119.38) (xy 152.4 119.38))
    (stroke (width 0) (type default) (color 0 0 0 0))
    (uuid 3dac2186-2162-46d7-80de-2a992f09f6e2)
  )
  (wire (pts (xy 259.08 27.94) (xy 257.81 27.94))
    (stroke (width 0) (type default) (color 0 0 0 0))
    (uuid 3e76f278-c7d2-4193-b4df-9a7c5293e042)
  )
  (wire (pts (xy 185.42 91.44) (xy 185.42 93.98))
    (stroke (width 0) (type default) (color 0 0 0 0))
    (uuid 4025cf95-7995-4e15-9f54-e9f485fbad80)
  )
  (wire (pts (xy 146.05 85.09) (xy 152.4 85.09))
    (stroke (width 0) (type default) (color 0 0 0 0))
    (uuid 42736cf3-e8a8-4f5e-91fd-d6c0774ac224)
  )
  (wire (pts (xy 143.51 87.63) (xy 143.51 101.6))
    (stroke (width 0) (type default) (color 0 0 0 0))
    (uuid 43b05451-4506-485e-8dad-6dc703cf1024)
  )
  (wire (pts (xy 107.95 116.84) (xy 120.65 116.84))
    (stroke (width 0) (type default) (color 0 0 0 0))
    (uuid 46bf99e8-5fa9-4698-acf6-0d6b284ad84f)
  )
  (wire (pts (xy 190.5 58.42) (xy 191.77 58.42))
    (stroke (width 0) (type default) (color 0 0 0 0))
    (uuid 473dec22-fafc-4568-b760-a109af927a37)
  )
  (wire (pts (xy 259.08 40.64) (xy 257.81 40.64))
    (stroke (width 0) (type default) (color 0 0 0 0))
    (uuid 4b839b58-b4b0-4ad2-9ed1-be4ff0e6aac7)
  )
  (wire (pts (xy 134.62 107.95) (xy 152.4 107.95))
    (stroke (width 0) (type default) (color 0 0 0 0))
    (uuid 6aac308e-f41f-4d78-bf94-890559caaa0b)
  )
  (wire (pts (xy 168.91 91.44) (xy 168.91 93.98))
    (stroke (width 0) (type default) (color 0 0 0 0))
    (uuid 6cbafc39-09a1-40c0-9b0e-503306fa9667)
  )
  (wire (pts (xy 190.5 55.88) (xy 191.77 55.88))
    (stroke (width 0) (type default) (color 0 0 0 0))
    (uuid 71b26da1-c654-4bad-8bed-6a063f81c111)
  )
  (wire (pts (xy 259.08 33.02) (xy 254 33.02))
    (stroke (width 0) (type default) (color 0 0 0 0))
    (uuid 750f1a8c-c00c-47d8-b4e8-1403017541e0)
  )
  (wire (pts (xy 137.16 95.25) (xy 137.16 104.14))
    (stroke (width 0) (type default) (color 0 0 0 0))
    (uuid 7b48a967-8c70-4b97-b403-39633b563db7)
  )
  (wire (pts (xy 107.95 85.09) (xy 146.05 85.09))
    (stroke (width 0) (type default) (color 0 0 0 0))
    (uuid 8014b124-7aad-4693-a7bd-225701a4204a)
  )
  (wire (pts (xy 132.08 100.33) (xy 132.08 110.49))
    (stroke (width 0) (type default) (color 0 0 0 0))
    (uuid 856baa1f-9d12-410f-8653-de325b2723c5)
  )
  (wire (pts (xy 132.08 110.49) (xy 152.4 110.49))
    (stroke (width 0) (type default) (color 0 0 0 0))
    (uuid 8c87065b-b532-4a1b-8228-43e3a907942f)
  )
  (wire (pts (xy 152.4 101.6) (xy 143.51 101.6))
    (stroke (width 0) (type default) (color 0 0 0 0))
    (uuid 8ee88154-13dd-43b1-a137-cdbc3112b6fd)
  )
  (wire (pts (xy 152.4 80.01) (xy 148.59 80.01))
    (stroke (width 0) (type default) (color 0 0 0 0))
    (uuid 8fb0cc54-8624-4d3b-a9a1-48b16ceda265)
  )
  (wire (pts (xy 107.95 72.39) (xy 152.4 72.39))
    (stroke (width 0) (type default) (color 0 0 0 0))
    (uuid 90e37e03-96bd-4ce0-91b9-3fe4fad95fcc)
  )
  (wire (pts (xy 182.88 91.44) (xy 182.88 93.98))
    (stroke (width 0) (type default) (color 0 0 0 0))
    (uuid 9328d83d-6da5-457b-92da-43fb4ead4b3f)
  )
  (wire (pts (xy 269.24 50.8) (xy 269.24 52.07))
    (stroke (width 0) (type default) (color 0 0 0 0))
    (uuid 94cbfaac-705a-40af-98ff-1aa3a3cbbce2)
  )
  (wire (pts (xy 176.53 91.44) (xy 176.53 93.98))
    (stroke (width 0) (type default) (color 0 0 0 0))
    (uuid 98216cbf-b864-4f12-abfc-91e227bc2f0b)
  )
  (wire (pts (xy 128.27 125.73) (xy 152.4 125.73))
    (stroke (width 0) (type default) (color 0 0 0 0))
    (uuid 9c021667-8430-488e-9f3a-8cd4626c46dd)
  )
  (wire (pts (xy 254 31.75) (xy 254 33.02))
    (stroke (width 0) (type default) (color 0 0 0 0))
    (uuid 9dbed625-96e0-4b0a-b651-163d0bb3bfcc)
  )
  (wire (pts (xy 171.45 91.44) (xy 171.45 93.98))
    (stroke (width 0) (type default) (color 0 0 0 0))
    (uuid a0dcfa43-cb74-4b18-9ad5-80709c5f2843)
  )
  (wire (pts (xy 107.95 102.87) (xy 129.54 102.87))
    (stroke (width 0) (type default) (color 0 0 0 0))
    (uuid ab0fe2da-71cb-4c31-9beb-75d40d659007)
  )
  (wire (pts (xy 123.19 130.81) (xy 123.19 132.08))
    (stroke (width 0) (type default) (color 0 0 0 0))
    (uuid abb1acdd-bd6b-4e80-8c2d-dd9bea6f69f8)
  )
  (wire (pts (xy 146.05 99.06) (xy 146.05 85.09))
    (stroke (width 0) (type default) (color 0 0 0 0))
    (uuid b1c02fcb-f0e9-4bed-932e-0807e2265416)
  )
  (wire (pts (xy 173.99 91.44) (xy 173.99 93.98))
    (stroke (width 0) (type default) (color 0 0 0 0))
    (uuid b787f150-5ecd-4251-a43d-56c13d192e9e)
  )
  (wire (pts (xy 191.77 107.95) (xy 193.04 107.95))
    (stroke (width 0) (type default) (color 0 0 0 0))
    (uuid b7e50300-ee19-4c19-997b-b41e8dae5543)
  )
  (wire (pts (xy 143.51 87.63) (xy 152.4 87.63))
    (stroke (width 0) (type default) (color 0 0 0 0))
    (uuid bcb70818-bfc3-485e-a201-050a7b2275f9)
  )
  (wire (pts (xy 107.95 87.63) (xy 143.51 87.63))
    (stroke (width 0) (type default) (color 0 0 0 0))
    (uuid bd38502a-a293-4e5c-90fc-ef8edac1817c)
  )
  (wire (pts (xy 107.95 69.85) (xy 120.65 69.85))
    (stroke (width 0) (type default) (color 0 0 0 0))
    (uuid be3c5b2c-7253-422b-8224-2db6185cbefe)
  )
  (wire (pts (xy 107.95 82.55) (xy 120.65 82.55))
    (stroke (width 0) (type default) (color 0 0 0 0))
    (uuid c2e58eea-4686-4f46-ab59-62c3964c2756)
  )
  (wire (pts (xy 107.95 74.93) (xy 152.4 74.93))
    (stroke (width 0) (type default) (color 0 0 0 0))
    (uuid c98b493f-5da2-4374-8196-48bbd3a1cb33)
  )
  (wire (pts (xy 107.95 58.42) (xy 152.4 58.42))
    (stroke (width 0) (type default) (color 0 0 0 0))
    (uuid ce2ee0ec-3c98-44c3-8ec1-143af83e249f)
  )
  (wire (pts (xy 146.05 99.06) (xy 152.4 99.06))
    (stroke (width 0) (type default) (color 0 0 0 0))
    (uuid cfa25a26-99d5-4064-8866-f923e097116b)
  )
  (wire (pts (xy 107.95 66.04) (xy 152.4 66.04))
    (stroke (width 0) (type default) (color 0 0 0 0))
    (uuid cfc46823-1644-429d-86ea-a5735bc25548)
  )
  (wire (pts (xy 190.5 53.34) (xy 191.77 53.34))
    (stroke (width 0) (type default) (color 0 0 0 0))
    (uuid d2fe63ce-6c5a-4a29-8c9c-d4a640117f12)
  )
  (wire (pts (xy 107.95 60.96) (xy 152.4 60.96))
    (stroke (width 0) (type default) (color 0 0 0 0))
    (uuid d8f43a8f-5b4e-4a3b-9ce4-b47812e6426d)
  )
  (wire (pts (xy 259.08 38.1) (xy 257.81 38.1))
    (stroke (width 0) (type default) (color 0 0 0 0))
    (uuid e02ec384-7e15-4936-9acc-f874b79590f2)
  )
  (wire (pts (xy 107.95 77.47) (xy 152.4 77.47))
    (stroke (width 0) (type default) (color 0 0 0 0))
    (uuid e0c66e1c-ab36-40f6-a4c9-079ed42b9f3b)
  )
  (wire (pts (xy 129.54 102.87) (xy 129.54 113.03))
    (stroke (width 0) (type default) (color 0 0 0 0))
    (uuid e7d7d974-6a17-4028-b531-5f3aebff925f)
  )
  (wire (pts (xy 254 33.02) (xy 252.73 33.02))
    (stroke (width 0) (type default) (color 0 0 0 0))
    (uuid e8c11b9a-5119-4306-86ed-6f30990e7964)
  )
  (wire (pts (xy 107.95 95.25) (xy 137.16 95.25))
    (stroke (width 0) (type default) (color 0 0 0 0))
    (uuid eb64465a-adaf-45e3-bf22-6ba76f038df8)
  )
  (wire (pts (xy 269.24 52.07) (xy 269.24 53.34))
    (stroke (width 0) (type default) (color 0 0 0 0))
    (uuid ecb39cff-8fa9-41ed-8f99-303fa5c0db8c)
  )
  (wire (pts (xy 57.15 190.5) (xy 57.15 191.77))
    (stroke (width 0) (type default) (color 0 0 0 0))
    (uuid fa386e48-a5ac-46fd-8bab-4f562a8373c3)
  )
  (wire (pts (xy 107.95 121.92) (xy 152.4 121.92))
    (stroke (width 0) (type default) (color 0 0 0 0))
    (uuid fb5e51d7-4864-4f2a-a951-85d86ff85971)
  )
  (wire (pts (xy 259.08 35.56) (xy 257.81 35.56))
    (stroke (width 0) (type default) (color 0 0 0 0))
    (uuid fe2a285a-afeb-4a58-96ae-4df26c9546fc)
  )

  (label "FPGA_EN" (at 109.22 77.47 0)
    (effects (font (size 1.27 1.27)) (justify left bottom))
    (uuid 35f90653-8207-4773-9177-4e4130d655bc)
  )
  (label "JTMS" (at 109.22 60.96 0)
    (effects (font (size 1.27 1.27)) (justify left bottom))
    (uuid 4140f367-4831-4b07-b632-f7ccaf92dad1)
  )
  (label "JTDO" (at 109.22 66.04 0)
    (effects (font (size 1.27 1.27)) (justify left bottom))
    (uuid 51a44c67-a065-4163-a3d9-7b6a433c97ab)
  )
  (label "JTDI" (at 109.22 58.42 0)
    (effects (font (size 1.27 1.27)) (justify left bottom))
    (uuid 5be1cb99-4e15-4893-8946-2bfccab5b3e2)
  )
  (label "TRX_EN" (at 109.22 102.87 0)
    (effects (font (size 1.27 1.27)) (justify left bottom))
    (uuid 75a8eed4-bf55-48a3-9019-335472e80183)
  )
  (label "SPI_MOSI" (at 109.22 80.01 0)
    (effects (font (size 1.27 1.27)) (justify left bottom))
    (uuid 984db87b-ce5a-4f0d-a274-40cc30d2e387)
  )
  (label "SPI_MISO" (at 109.22 85.09 0)
    (effects (font (size 1.27 1.27)) (justify left bottom))
    (uuid 9cdf2679-f287-408c-92e5-e2d5ce7e97d3)
  )
  (label "TRX_CS" (at 109.22 95.25 0)
    (effects (font (size 1.27 1.27)) (justify left bottom))
    (uuid af77aa03-48d4-40d8-8c17-f63dee70e76a)
  )
  (label "TRX_IRQ" (at 109.22 97.79 0)
    (effects (font (size 1.27 1.27)) (justify left bottom))
    (uuid bf5c4a41-bb35-470a-9385-da20bff79385)
  )
  (label "TRX_RST" (at 109.22 100.33 0)
    (effects (font (size 1.27 1.27)) (justify left bottom))
    (uuid c7994078-a81f-4cbc-9cf8-ee45dc33693c)
  )
  (label "FPGA_DONE" (at 109.22 74.93 0)
    (effects (font (size 1.27 1.27)) (justify left bottom))
    (uuid da39da84-230b-498d-9ec9-b8bd58a9abdb)
  )
  (label "FPGA_CS" (at 109.22 90.17 0)
    (effects (font (size 1.27 1.27)) (justify left bottom))
    (uuid e154ca3e-173b-4da9-b838-c378f31c1204)
  )
  (label "JTCK" (at 109.22 63.5 0)
    (effects (font (size 1.27 1.27)) (justify left bottom))
    (uuid f4b537d5-c9be-46c3-a59a-7025119214e5)
  )
  (label "FPGA_INIT" (at 109.22 72.39 0)
    (effects (font (size 1.27 1.27)) (justify left bottom))
    (uuid f6fd73c7-52d7-4605-a3b8-7eb9ee7990f2)
  )
  (label "SPI_SCK" (at 109.22 87.63 0)
    (effects (font (size 1.27 1.27)) (justify left bottom))
    (uuid fe77533c-5140-448e-acd7-d0ae6f4c6e25)
  )

  (global_label "3V3" (shape output) (at 252.73 33.02 180) (fields_autoplaced)
    (effects (font (size 1.27 1.27)) (justify right))
    (uuid cb03bad5-6bce-4400-8eed-a44771d38df1)
    (property "Intersheet References" "${INTERSHEET_REFS}" (id 0) (at 246.8093 32.9406 0)
      (effects (font (size 1.27 1.27)) (justify right) hide)
    )
  )

  (symbol (lib_id "Connector_Generic:Conn_01x03") (at 102.87 119.38 180) (unit 1)
    (in_bom yes) (on_board yes)
    (uuid 133a1425-e565-427b-b608-18186567d51d)
    (property "Reference" "J104" (id 0) (at 97.79 118.11 0))
    (property "Value" "RFFE" (id 1) (at 97.79 120.65 0))
    (property "Footprint" "Connector_Molex:Molex_PicoBlade_53261-0371_1x03-1MP_P1.25mm_Horizontal" (id 2) (at 102.87 119.38 0)
      (effects (font (size 1.27 1.27)) hide)
    )
    (property "Datasheet" "~" (id 3) (at 102.87 119.38 0)
      (effects (font (size 1.27 1.27)) hide)
    )
    (pin "1" (uuid d1252fb3-c1e1-4a79-ae19-19ab21920db0))
    (pin "2" (uuid df546967-428f-4e55-aa36-ec1a984b55fd))
    (pin "3" (uuid e18b4df0-558d-4a1d-9fa8-5acf6944e4c5))
  )

  (symbol (lib_id "power:GND") (at 120.65 55.88 90) (unit 1)
    (in_bom yes) (on_board yes) (fields_autoplaced)
    (uuid 4069af3d-0838-43d5-ad5a-f61bd44e2c45)
    (property "Reference" "#PWR0104" (id 0) (at 127 55.88 0)
      (effects (font (size 1.27 1.27)) hide)
    )
    (property "Value" "GND" (id 1) (at 124.46 55.8799 90)
      (effects (font (size 1.27 1.27)) (justify right))
    )
    (property "Footprint" "" (id 2) (at 120.65 55.88 0)
      (effects (font (size 1.27 1.27)) hide)
    )
    (property "Datasheet" "" (id 3) (at 120.65 55.88 0)
      (effects (font (size 1.27 1.27)) hide)
    )
    (pin "1" (uuid ac213fc3-e990-496c-86ca-b127a21863ea))
  )

  (symbol (lib_id "power:GND") (at 269.24 53.34 0) (mirror y) (unit 1)
    (in_bom yes) (on_board yes) (fields_autoplaced)
    (uuid 45d67b03-0422-4603-ae20-02dec2110012)
    (property "Reference" "#PWR0105" (id 0) (at 269.24 59.69 0)
      (effects (font (size 1.27 1.27)) hide)
    )
    (property "Value" "GND" (id 1) (at 269.24 58.42 0))
    (property "Footprint" "" (id 2) (at 269.24 53.34 0)
      (effects (font (size 1.27 1.27)) hide)
    )
    (property "Datasheet" "" (id 3) (at 269.24 53.34 0)
      (effects (font (size 1.27 1.27)) hide)
    )
    (pin "1" (uuid bd6b4091-e410-4675-ab93-98b0ef711b6f))
  )

  (symbol (lib_id "Mechanical:MountingHole_Pad") (at 57.15 173.99 0) (unit 1)
    (in_bom no) (on_board yes) (fields_autoplaced)
    (uuid 526adbdc-849c-4286-afdf-1bbf486d67e3)
    (property "Reference" "H103" (id 0) (at 59.69 171.4499 0)
      (effects (font (size 1.27 1.27)) (justify left))
    )
    (property "Value" "MountingHole_2.5mm_Pad" (id 1) (at 59.69 173.9899 0)
      (effects (font (size 1.27 1.27)) (justify left))
    )
    (property "Footprint" "MountingHole:MountingHole_2.5mm_Pad" (id 2) (at 57.15 173.99 0)
      (effects (font (size 1.27 1.27)) hide)
    )
    (property "Datasheet" "~" (id 3) (at 57.15 173.99 0)
      (effects (font (size 1.27 1.27)) hide)
    )
    (pin "1" (uuid a6e24724-23df-4b51-97d6-d7bdd0fb8469))
  )

  (symbol (lib_id "Mechanical:MountingHole_Pad") (at 57.15 187.96 0) (unit 1)
    (in_bom no) (on_board yes) (fields_autoplaced)
    (uuid 52df3d68-78ff-48ce-9ceb-30c61f32fcae)
    (property "Reference" "H104" (id 0) (at 59.69 185.4199 0)
      (effects (font (size 1.27 1.27)) (justify left))
    )
    (property "Value" "MountingHole_2.5mm_Pad" (id 1) (at 59.69 187.9599 0)
      (effects (font (size 1.27 1.27)) (justify left))
    )
    (property "Footprint" "MountingHole:MountingHole_2.5mm_Pad" (id 2) (at 57.15 187.96 0)
      (effects (font (size 1.27 1.27)) hide)
    )
    (property "Datasheet" "~" (id 3) (at 57.15 187.96 0)
      (effects (font (size 1.27 1.27)) hide)
    )
    (pin "1" (uuid 2fcf21d1-cb4a-49ee-9215-29416073d82c))
  )

  (symbol (lib_id "Connector:TestPoint") (at 193.04 107.95 270) (unit 1)
    (in_bom no) (on_board yes)
    (uuid 53a9138e-5c0b-41fd-9633-75919dc38c74)
    (property "Reference" "TP102" (id 0) (at 198.12 106.68 90)
      (effects (font (size 1.27 1.27)) (justify left))
    )
    (property "Value" "CLKO" (id 1) (at 198.12 109.22 90)
      (effects (font (size 1.27 1.27)) (justify left))
    )
    (property "Footprint" "TestPoint:TestPoint_Pad_D1.0mm" (id 2) (at 193.04 113.03 0)
      (effects (font (size 1.27 1.27)) hide)
    )
    (property "Datasheet" "~" (id 3) (at 193.04 113.03 0)
      (effects (font (size 1.27 1.27)) hide)
    )
    (pin "1" (uuid 13b3f803-191b-4e97-9204-5327b4d5a608))
  )

  (symbol (lib_id "Mechanical:MountingHole_Pad") (at 22.86 187.96 0) (unit 1)
    (in_bom no) (on_board yes) (fields_autoplaced)
    (uuid 64a51b09-0503-49b7-b546-ff1255161802)
    (property "Reference" "H102" (id 0) (at 25.4 185.4199 0)
      (effects (font (size 1.27 1.27)) (justify left))
    )
    (property "Value" "MountingHole_2.5mm_Pad" (id 1) (at 25.4 187.9599 0)
      (effects (font (size 1.27 1.27)) (justify left))
    )
    (property "Footprint" "MountingHole:MountingHole_2.5mm_Pad" (id 2) (at 22.86 187.96 0)
      (effects (font (size 1.27 1.27)) hide)
    )
    (property "Datasheet" "~" (id 3) (at 22.86 187.96 0)
      (effects (font (size 1.27 1.27)) hide)
    )
    (pin "1" (uuid 786338b2-8a4a-4483-a944-c28ac52a918e))
  )

  (symbol (lib_id "power:GND") (at 120.65 116.84 90) (unit 1)
    (in_bom yes) (on_board yes) (fields_autoplaced)
    (uuid 6780703a-c791-4c44-8565-eacab28908e9)
    (property "Reference" "#PWR0107" (id 0) (at 127 116.84 0)
      (effects (font (size 1.27 1.27)) hide)
    )
    (property "Value" "GND" (id 1) (at 124.46 116.8399 90)
      (effects (font (size 1.27 1.27)) (justify right))
    )
    (property "Footprint" "" (id 2) (at 120.65 116.84 0)
      (effects (font (size 1.27 1.27)) hide)
    )
    (property "Datasheet" "" (id 3) (at 120.65 116.84 0)
      (effects (font (size 1.27 1.27)) hide)
    )
    (pin "1" (uuid f36bf07c-51a3-4a2c-a786-8733310aa7b1))
  )

  (symbol (lib_id "power:GND") (at 120.65 92.71 90) (unit 1)
    (in_bom yes) (on_board yes) (fields_autoplaced)
    (uuid 6fc1c8d4-77b3-47da-868d-76b70e0504f5)
    (property "Reference" "#PWR0106" (id 0) (at 127 92.71 0)
      (effects (font (size 1.27 1.27)) hide)
    )
    (property "Value" "GND" (id 1) (at 124.46 92.7099 90)
      (effects (font (size 1.27 1.27)) (justify right))
    )
    (property "Footprint" "" (id 2) (at 120.65 92.71 0)
      (effects (font (size 1.27 1.27)) hide)
    )
    (property "Datasheet" "" (id 3) (at 120.65 92.71 0)
      (effects (font (size 1.27 1.27)) hide)
    )
    (pin "1" (uuid 2e2f50ee-5f6a-404c-b1f2-df777d620e3f))
  )

  (symbol (lib_id "Connector:TestPoint") (at 254 31.75 0) (mirror y) (unit 1)
    (in_bom no) (on_board yes)
    (uuid 93a91a74-38ac-4ff0-9fb4-e88bd99a5425)
    (property "Reference" "TP101" (id 0) (at 255.27 26.67 90)
      (effects (font (size 1.27 1.27)) (justify left))
    )
    (property "Value" "3V3" (id 1) (at 252.73 26.67 90)
      (effects (font (size 1.27 1.27)) (justify left))
    )
    (property "Footprint" "lsf-kicad-lib:TestPoint_D0.8mm_Mask-Only" (id 2) (at 248.92 31.75 0)
      (effects (font (size 1.27 1.27)) hide)
    )
    (property "Datasheet" "~" (id 3) (at 248.92 31.75 0)
      (effects (font (size 1.27 1.27)) hide)
    )
    (pin "1" (uuid f988b305-ac25-4bab-be6c-7609168c329a))
  )

  (symbol (lib_id "power:GND") (at 123.19 132.08 0) (unit 1)
    (in_bom yes) (on_board yes) (fields_autoplaced)
    (uuid 9821652c-06a2-4902-877d-da88ca3d9da6)
    (property "Reference" "#PWR0101" (id 0) (at 123.19 138.43 0)
      (effects (font (size 1.27 1.27)) hide)
    )
    (property "Value" "GND" (id 1) (at 123.19 137.16 0))
    (property "Footprint" "" (id 2) (at 123.19 132.08 0)
      (effects (font (size 1.27 1.27)) hide)
    )
    (property "Datasheet" "" (id 3) (at 123.19 132.08 0)
      (effects (font (size 1.27 1.27)) hide)
    )
    (pin "1" (uuid 1a893cb8-e786-4c16-8c1e-243f251159a7))
  )

  (symbol (lib_id "Connector_Generic:Conn_01x06") (at 102.87 60.96 180) (unit 1)
    (in_bom yes) (on_board yes) (fields_autoplaced)
    (uuid 9a51fd09-eca3-427d-8f96-6eda33983388)
    (property "Reference" "J103" (id 0) (at 102.87 46.99 0))
    (property "Value" "JTAG" (id 1) (at 102.87 49.53 0))
    (property "Footprint" "Connector_Molex:Molex_PicoBlade_53261-0671_1x06-1MP_P1.25mm_Horizontal" (id 2) (at 102.87 60.96 0)
      (effects (font (size 1.27 1.27)) hide)
    )
    (property "Datasheet" "~" (id 3) (at 102.87 60.96 0)
      (effects (font (size 1.27 1.27)) hide)
    )
    (property "Mnf." "Molex" (id 4) (at 102.87 60.96 0)
      (effects (font (size 1.27 1.27)) hide)
    )
    (property "PartNumber" "53261-0671" (id 5) (at 102.87 60.96 0)
      (effects (font (size 1.27 1.27)) hide)
    )
    (pin "1" (uuid ae0f44da-9a24-4451-89e0-9e5c95fe5d0e))
    (pin "2" (uuid 58c27025-8e47-4f55-91e8-b09f2eb2e1c6))
    (pin "3" (uuid 426b6837-5c3f-459b-ae3c-b33aa7535685))
    (pin "4" (uuid b5e91962-44f2-43fa-b3ce-db541e387729))
    (pin "5" (uuid 7efb1152-4573-4861-ae44-20e78613fc33))
    (pin "6" (uuid 4fd3be58-23ac-46e0-b9dc-663f93394da7))
  )

  (symbol (lib_id "power:GND") (at 120.65 69.85 90) (unit 1)
    (in_bom yes) (on_board yes)
    (uuid 9d81a245-9ee2-46b1-b9b5-47d9d0d09596)
    (property "Reference" "#PWR0102" (id 0) (at 127 69.85 0)
      (effects (font (size 1.27 1.27)) hide)
    )
    (property "Value" "GND" (id 1) (at 124.46 69.8499 90)
      (effects (font (size 1.27 1.27)) (justify right))
    )
    (property "Footprint" "" (id 2) (at 120.65 69.85 0)
      (effects (font (size 1.27 1.27)) hide)
    )
    (property "Datasheet" "" (id 3) (at 120.65 69.85 0)
      (effects (font (size 1.27 1.27)) hide)
    )
    (pin "1" (uuid 5b4369a7-d988-433b-8373-0c269ef18754))
  )

  (symbol (lib_id "lsf-kicad:PQ9-Connector") (at 269.24 35.56 0) (unit 1)
    (in_bom yes) (on_board yes) (fields_autoplaced)
    (uuid b32face3-6a09-493e-a59d-ec6310cc7169)
    (property "Reference" "PQ101" (id 0) (at 269.875 19.05 0))
    (property "Value" "PQ9-Connector" (id 1) (at 269.875 21.59 0))
    (property "Footprint" "Connector_PinSocket_2.00mm:PinSocket_1x09_P2.00mm_Vertical" (id 2) (at 279.4 48.26 0)
      (effects (font (size 1.27 1.27)) hide)
    )
    (property "Datasheet" "https://libre.space/pq9ish" (id 3) (at 281.94 30.48 0)
      (effects (font (size 1.27 1.27)) hide)
    )
    (property "Mnf." "Samtec" (id 4) (at 269.24 35.56 0)
      (effects (font (size 1.27 1.27)) hide)
    )
    (property "PartNumber" "SQT-109-03-L-S" (id 5) (at 269.24 35.56 0)
      (effects (font (size 1.27 1.27)) hide)
    )
    (pin "1" (uuid 6f3db225-fc4e-49c6-b4ba-1bae5fe65554))
    (pin "2" (uuid e90321af-348e-4a4c-a66b-8f3c451261a1))
    (pin "3" (uuid d7a6eae7-c0b5-41b7-8589-b2725d4bacfe))
    (pin "4" (uuid 3e04e181-f1c4-4ed6-88e5-651155925f95))
    (pin "5" (uuid b33ebe68-3900-49bb-9e3a-1f80dff599c3))
    (pin "6" (uuid 23aa9981-8f7c-41cd-bff0-2c4916f0c5d6))
    (pin "7" (uuid 538f6011-4342-45ce-a303-25ec826ff7d3))
    (pin "8" (uuid 2b02489e-f184-4bbf-b000-4452b895cd9d))
    (pin "9" (uuid 48b50ee1-6e1e-4122-8b01-d4ee2658cd5a))
  )

  (symbol (lib_id "Connector_Generic:Conn_01x14") (at 102.87 87.63 180) (unit 1)
    (in_bom yes) (on_board yes)
    (uuid b7f72b91-9c14-412e-8d5b-9546c79f0c93)
    (property "Reference" "J101" (id 0) (at 96.52 87.63 90))
    (property "Value" "MCU" (id 1) (at 99.06 87.63 90))
    (property "Footprint" "Connector_Molex:Molex_PicoBlade_53261-1471_1x14-1MP_P1.25mm_Horizontal" (id 2) (at 102.87 87.63 0)
      (effects (font (size 1.27 1.27)) hide)
    )
    (property "Datasheet" "~" (id 3) (at 102.87 87.63 0)
      (effects (font (size 1.27 1.27)) hide)
    )
    (property "Mnf." "Molex" (id 4) (at 102.87 87.63 0)
      (effects (font (size 1.27 1.27)) hide)
    )
    (property "PartNumber" "53261-1471" (id 5) (at 102.87 87.63 0)
      (effects (font (size 1.27 1.27)) hide)
    )
    (pin "1" (uuid e195fe2a-6606-4c99-abbf-2ee6ce5791f0))
    (pin "10" (uuid 8d7dceb6-6dc4-4f80-a593-1c424f4a49f8))
    (pin "11" (uuid 1bb07f97-862a-48ec-9831-47ce71c2d3b5))
    (pin "12" (uuid a9af9cd7-63b5-491d-b0de-aa4f6431da25))
    (pin "13" (uuid 63c04563-e3aa-4ee0-b084-c503d7664b3e))
    (pin "14" (uuid 1b70f2da-dc5c-4332-84f6-afd53a0b19f6))
    (pin "2" (uuid a81b7eaf-9815-46ff-bce1-f538e3125872))
    (pin "3" (uuid 6cf3c87f-b79a-46ff-bb9b-995ed9eaa43f))
    (pin "4" (uuid 84bd4a8f-4c0a-452e-9bd9-62f7ffd6e67c))
    (pin "5" (uuid 134a6d7d-1c2b-41b8-9c14-743f92e431f5))
    (pin "6" (uuid cf995505-729c-40c7-95c8-edfce0657971))
    (pin "7" (uuid 9e5bb9a8-32a7-474e-933e-e379a87775e9))
    (pin "8" (uuid 2ad62163-dc78-406a-9245-605bec9b00fa))
    (pin "9" (uuid 711f3f53-71be-4096-be14-bf347dab7c23))
  )

  (symbol (lib_id "power:GND") (at 120.65 82.55 90) (unit 1)
    (in_bom yes) (on_board yes) (fields_autoplaced)
    (uuid bb07f85a-0fc3-408d-9733-21d215adf9ee)
    (property "Reference" "#PWR0103" (id 0) (at 127 82.55 0)
      (effects (font (size 1.27 1.27)) hide)
    )
    (property "Value" "GND" (id 1) (at 124.46 82.5499 90)
      (effects (font (size 1.27 1.27)) (justify right))
    )
    (property "Footprint" "" (id 2) (at 120.65 82.55 0)
      (effects (font (size 1.27 1.27)) hide)
    )
    (property "Datasheet" "" (id 3) (at 120.65 82.55 0)
      (effects (font (size 1.27 1.27)) hide)
    )
    (pin "1" (uuid 1ea63e96-7d1a-4267-9884-7fbb1be99e37))
  )

  (symbol (lib_id "power:PWR_FLAG") (at 267.97 52.07 90) (mirror x) (unit 1)
    (in_bom yes) (on_board yes)
    (uuid c67169cc-7c52-4a66-bed8-f2f96489d82c)
    (property "Reference" "#FLG0101" (id 0) (at 266.065 52.07 0)
      (effects (font (size 1.27 1.27)) hide)
    )
    (property "Value" "PWR_FLAG" (id 1) (at 260.35 52.07 90))
    (property "Footprint" "" (id 2) (at 267.97 52.07 0)
      (effects (font (size 1.27 1.27)) hide)
    )
    (property "Datasheet" "~" (id 3) (at 267.97 52.07 0)
      (effects (font (size 1.27 1.27)) hide)
    )
    (pin "1" (uuid fb47d9fc-795f-41f7-8806-fc330c698bc0))
  )

  (symbol (lib_id "Mechanical:MountingHole_Pad") (at 22.86 173.99 0) (unit 1)
    (in_bom no) (on_board yes) (fields_autoplaced)
    (uuid db120c4d-0b56-4c60-a541-7562d7b98821)
    (property "Reference" "H101" (id 0) (at 25.4 171.4499 0)
      (effects (font (size 1.27 1.27)) (justify left))
    )
    (property "Value" "MountingHole_2.5mm_Pad" (id 1) (at 25.4 173.9899 0)
      (effects (font (size 1.27 1.27)) (justify left))
    )
    (property "Footprint" "MountingHole:MountingHole_2.5mm_Pad" (id 2) (at 22.86 173.99 0)
      (effects (font (size 1.27 1.27)) hide)
    )
    (property "Datasheet" "~" (id 3) (at 22.86 173.99 0)
      (effects (font (size 1.27 1.27)) hide)
    )
    (pin "1" (uuid f6f74bfa-bcd6-416b-9ff3-3e4dbf1336e6))
  )

  (symbol (lib_id "Connector:Conn_Coaxial") (at 123.19 125.73 0) (mirror y) (unit 1)
    (in_bom yes) (on_board yes)
    (uuid dd87a3f1-d015-44f9-8f09-63bc9fedb74d)
    (property "Reference" "J102" (id 0) (at 118.11 124.46 0))
    (property "Value" "Conn_Coaxial" (id 1) (at 114.3 127 0))
    (property "Footprint" "Connector_Coaxial:U.FL_Hirose_U.FL-R-SMT-1_Vertical" (id 2) (at 123.19 125.73 0)
      (effects (font (size 1.27 1.27)) hide)
    )
    (property "Datasheet" " ~" (id 3) (at 123.19 125.73 0)
      (effects (font (size 1.27 1.27)) hide)
    )
    (property "Mnf." "Hirose" (id 4) (at 123.19 125.73 0)
      (effects (font (size 1.27 1.27)) hide)
    )
    (property "PartNumber" "U.FL-R-SMT(01)" (id 5) (at 123.19 125.73 0)
      (effects (font (size 1.27 1.27)) hide)
    )
    (pin "1" (uuid bca8886b-8bc6-42da-981a-4b516f4a7146))
    (pin "2" (uuid 8c1afb16-bf97-4cc6-86a9-7092eb68f395))
  )

  (sheet (at 152.4 52.07) (size 38.1 39.37)
    (stroke (width 0.1524) (type solid) (color 0 0 0 0))
    (fill (color 0 0 0 0.0000))
    (uuid 3c19fda9-55de-469e-9693-2d8993bca106)
    (property "Sheet name" "fpga" (id 0) (at 152.4 49.53 0)
      (effects (font (size 1.27 1.27)) (justify left bottom))
    )
    (property "Sheet file" "sidloc-schematic/fpga.kicad_sch" (id 1) (at 152.4 49.53 0)
      (effects (font (size 1.27 1.27)) (justify left top))
    )
    (pin "RXCLOCKN" input (at 182.88 91.44 270)
      (effects (font (size 1.27 1.27)) (justify left))
      (uuid 57e5214d-024a-4f8e-b178-ae28ca92ab1c)
    )
    (pin "TXCLOCKN" input (at 171.45 91.44 270)
      (effects (font (size 1.27 1.27)) (justify left))
      (uuid 2be7b066-c2ff-480b-85f2-398b9dc58fb3)
    )
    (pin "TXCLOCKP" input (at 168.91 91.44 270)
      (effects (font (size 1.27 1.27)) (justify left))
      (uuid aa87f79d-53e4-467d-939d-39a73c0938ae)
    )
    (pin "RXDATAP" input (at 185.42 91.44 270)
      (effects (font (size 1.27 1.27)) (justify left))
      (uuid bf3a13cc-b4ce-43a4-9f7b-4c05fc38e450)
    )
    (pin "RXCLOCKP" input (at 180.34 91.44 270)
      (effects (font (size 1.27 1.27)) (justify left))
      (uuid d78b813c-f85e-4c14-a1af-0c96beb17d6b)
    )
    (pin "TXDATAN" input (at 176.53 91.44 270)
      (effects (font (size 1.27 1.27)) (justify left))
      (uuid 043f1c77-5888-4115-a2c2-88ace88fc722)
    )
    (pin "TXDATAP" input (at 173.99 91.44 270)
      (effects (font (size 1.27 1.27)) (justify left))
      (uuid e0a49e7d-5e07-4d48-9142-d1f0c2152a41)
    )
    (pin "RXDATAN" input (at 187.96 91.44 270)
      (effects (font (size 1.27 1.27)) (justify left))
      (uuid 121e20f3-9f96-4492-bde1-4332cd03f9d6)
    )
    (pin "SPI_MISO" input (at 152.4 85.09 180)
      (effects (font (size 1.27 1.27)) (justify left))
      (uuid a8548301-0942-4a81-83a9-359cb52e4c23)
    )
    (pin "SPI_MOSI" input (at 152.4 80.01 180)
      (effects (font (size 1.27 1.27)) (justify left))
      (uuid 65005d00-785c-47cc-ab46-46f216bd5f30)
    )
    (pin "SPI_CLK" input (at 152.4 87.63 180)
      (effects (font (size 1.27 1.27)) (justify left))
      (uuid be9cc150-b788-472e-b8b7-9564a7ce402d)
    )
    (pin "SPI_CS" input (at 152.4 90.17 180)
      (effects (font (size 1.27 1.27)) (justify left))
      (uuid 4c5443ba-edf6-4444-a9bc-07e9a30e9286)
    )
    (pin "JTDO" input (at 152.4 66.04 180)
      (effects (font (size 1.27 1.27)) (justify left))
      (uuid 56a04142-6453-41c1-ad11-ef9f2e789586)
    )
    (pin "JTMS" input (at 152.4 60.96 180)
      (effects (font (size 1.27 1.27)) (justify left))
      (uuid 46fb9ebc-48a1-43fb-b82f-c8a4945b5d70)
    )
    (pin "JTDI" input (at 152.4 58.42 180)
      (effects (font (size 1.27 1.27)) (justify left))
      (uuid d921ac40-acc6-423b-bfd8-c4851f3883ca)
    )
    (pin "JTCK" input (at 152.4 63.5 180)
      (effects (font (size 1.27 1.27)) (justify left))
      (uuid 3914f76d-f2ae-4435-805c-109e991e4dbd)
    )
    (pin "FPGA_3V3" output (at 152.4 53.34 180)
      (effects (font (size 1.27 1.27)) (justify left))
      (uuid 7289e297-9e18-4e41-96a9-52118cd07972)
    )
    (pin "EN" input (at 152.4 77.47 180)
      (effects (font (size 1.27 1.27)) (justify left))
      (uuid 8120195e-3beb-436b-9b2c-d242cf435c9d)
    )
    (pin "INIT" input (at 152.4 72.39 180)
      (effects (font (size 1.27 1.27)) (justify left))
      (uuid 609d48dd-e3ef-4c39-be24-84b09ccf5352)
    )
    (pin "PROG" input (at 190.5 58.42 0)
      (effects (font (size 1.27 1.27)) (justify right))
      (uuid 44f9aeea-f5d9-4c72-a005-3cebc59b3c7f)
    )
    (pin "DONE" input (at 152.4 74.93 180)
      (effects (font (size 1.27 1.27)) (justify left))
      (uuid 9b1712a3-afd2-4652-877a-2cb3c6c8f225)
    )
    (pin "IO0" input (at 190.5 55.88 0)
      (effects (font (size 1.27 1.27)) (justify right))
      (uuid 92bac250-1713-43ec-a017-a0ad6c4d2b50)
    )
    (pin "IO1" input (at 190.5 53.34 0)
      (effects (font (size 1.27 1.27)) (justify right))
      (uuid 407b824e-b123-4657-b5f8-e1dc8975fa30)
    )
  )

  (sheet (at 152.4 93.98) (size 39.37 34.29)
    (stroke (width 0.1524) (type solid) (color 0 0 0 0))
    (fill (color 0 0 0 0.0000))
    (uuid 7e10c94a-7591-4892-9351-18ebe562ea30)
    (property "Sheet name" "transceiver" (id 0) (at 152.4 130.81 0)
      (effects (font (size 1.27 1.27)) (justify left bottom))
    )
    (property "Sheet file" "sidloc-schematic/transceiver.kicad_sch" (id 1) (at 152.4 130.81 0)
      (effects (font (size 1.27 1.27)) (justify left top))
    )
    (pin "RST" input (at 152.4 110.49 180)
      (effects (font (size 1.27 1.27)) (justify left))
      (uuid 2523fb7d-bdf6-476e-87d5-a6e44e66f2d6)
    )
    (pin "TXCLOCKN" input (at 171.45 93.98 90)
      (effects (font (size 1.27 1.27)) (justify right))
      (uuid 6b3d1abd-0dc7-4b87-a6e2-b3788061a91d)
    )
    (pin "TXCLOCKP" input (at 168.91 93.98 90)
      (effects (font (size 1.27 1.27)) (justify right))
      (uuid fda7166d-a59e-45b4-bfb9-c5bb3bfc76ec)
    )
    (pin "TXDATAP" input (at 173.99 93.98 90)
      (effects (font (size 1.27 1.27)) (justify right))
      (uuid 4277dfab-25fc-49d0-90e8-0de709088f59)
    )
    (pin "RXDATAP" input (at 185.42 93.98 90)
      (effects (font (size 1.27 1.27)) (justify right))
      (uuid 918803af-90ac-48a1-abae-454dfcbabf0f)
    )
    (pin "RXCLOCKP" input (at 180.34 93.98 90)
      (effects (font (size 1.27 1.27)) (justify right))
      (uuid e0b786a3-bcaf-41c0-99ce-8c7f040aa44d)
    )
    (pin "RXDATAN" input (at 187.96 93.98 90)
      (effects (font (size 1.27 1.27)) (justify right))
      (uuid 93ecbc54-1069-4b0d-bb3e-7e6e55245785)
    )
    (pin "TXDATAN" input (at 176.53 93.98 90)
      (effects (font (size 1.27 1.27)) (justify right))
      (uuid 95215f6d-8b84-453e-a7c2-f344a2893873)
    )
    (pin "RXCLOCKN" input (at 182.88 93.98 90)
      (effects (font (size 1.27 1.27)) (justify right))
      (uuid 887ce0ba-13fe-4510-9754-6bc0fbe0d2d1)
    )
    (pin "SPI_CS" input (at 152.4 104.14 180)
      (effects (font (size 1.27 1.27)) (justify left))
      (uuid eb85e919-6ed9-4b15-8c1d-1a3aa849fb16)
    )
    (pin "SPI_MISO" input (at 152.4 99.06 180)
      (effects (font (size 1.27 1.27)) (justify left))
      (uuid 54bf18f1-ceae-4653-b836-2895f448ff5c)
    )
    (pin "SPI_CLK" input (at 152.4 101.6 180)
      (effects (font (size 1.27 1.27)) (justify left))
      (uuid 369be60c-c456-43eb-bda9-0ae1128f132b)
    )
    (pin "IRQ" input (at 152.4 107.95 180)
      (effects (font (size 1.27 1.27)) (justify left))
      (uuid f239e11e-34af-438d-a4f5-e32e052016e7)
    )
    (pin "SPI_MOSI" input (at 152.4 96.52 180)
      (effects (font (size 1.27 1.27)) (justify left))
      (uuid 2c9c4918-f67d-4db0-b81d-4f58470dfdd5)
    )
    (pin "RFIO" input (at 152.4 125.73 180)
      (effects (font (size 1.27 1.27)) (justify left))
      (uuid 2567e369-0760-4dd2-b05f-910315719521)
    )
    (pin "EN" input (at 152.4 113.03 180)
      (effects (font (size 1.27 1.27)) (justify left))
      (uuid 7b8235d0-a2a1-4d63-8663-0b7f1bcd464d)
    )
    (pin "FEA09" input (at 152.4 119.38 180)
      (effects (font (size 1.27 1.27)) (justify left))
      (uuid 7da97473-e61e-4abe-8bea-b80eeb3bd5b9)
    )
    (pin "CLKO" input (at 191.77 107.95 0)
      (effects (font (size 1.27 1.27)) (justify right))
      (uuid 8f2ceaaf-b861-4209-a624-7d1d14f09459)
    )
    (pin "FEB09" input (at 152.4 121.92 180)
      (effects (font (size 1.27 1.27)) (justify left))
      (uuid 862fd3bd-c46f-4fa7-8882-35b16fed0f05)
    )
  )

  (sheet_instances
    (path "/" (page "1"))
    (path "/3c19fda9-55de-469e-9693-2d8993bca106" (page "2"))
    (path "/7e10c94a-7591-4892-9351-18ebe562ea30" (page "3"))
  )

  (symbol_instances
    (path "/c67169cc-7c52-4a66-bed8-f2f96489d82c"
      (reference "#FLG0101") (unit 1) (value "PWR_FLAG") (footprint "")
    )
    (path "/3c19fda9-55de-469e-9693-2d8993bca106/d5f5ce78-11a2-4bc4-92de-cd4bf1553fce"
      (reference "#FLG0601") (unit 1) (value "PWR_FLAG") (footprint "")
    )
    (path "/7e10c94a-7591-4892-9351-18ebe562ea30/8ec89ef7-e24e-4213-a6aa-776bc21b36ee"
      (reference "#FLG0701") (unit 1) (value "PWR_FLAG") (footprint "")
    )
    (path "/9821652c-06a2-4902-877d-da88ca3d9da6"
      (reference "#PWR0101") (unit 1) (value "GND") (footprint "")
    )
    (path "/9d81a245-9ee2-46b1-b9b5-47d9d0d09596"
      (reference "#PWR0102") (unit 1) (value "GND") (footprint "")
    )
    (path "/bb07f85a-0fc3-408d-9733-21d215adf9ee"
      (reference "#PWR0103") (unit 1) (value "GND") (footprint "")
    )
    (path "/4069af3d-0838-43d5-ad5a-f61bd44e2c45"
      (reference "#PWR0104") (unit 1) (value "GND") (footprint "")
    )
    (path "/45d67b03-0422-4603-ae20-02dec2110012"
      (reference "#PWR0105") (unit 1) (value "GND") (footprint "")
    )
    (path "/6fc1c8d4-77b3-47da-868d-76b70e0504f5"
      (reference "#PWR0106") (unit 1) (value "GND") (footprint "")
    )
    (path "/6780703a-c791-4c44-8565-eacab28908e9"
      (reference "#PWR0107") (unit 1) (value "GND") (footprint "")
    )
    (path "/3c19fda9-55de-469e-9693-2d8993bca106/762c365d-10a4-4f5f-b067-15e4efcc12bc"
      (reference "#PWR0601") (unit 1) (value "GND") (footprint "")
    )
    (path "/3c19fda9-55de-469e-9693-2d8993bca106/fd56ed59-4881-4a3a-8ffb-c0dbe1950c12"
      (reference "#PWR0602") (unit 1) (value "GND") (footprint "")
    )
    (path "/3c19fda9-55de-469e-9693-2d8993bca106/1c2cb576-c8a6-4be9-a7e9-a2a65e0e4107"
      (reference "#PWR0603") (unit 1) (value "GND") (footprint "")
    )
    (path "/3c19fda9-55de-469e-9693-2d8993bca106/e2006794-f361-432b-a3dd-addad32f89c5"
      (reference "#PWR0604") (unit 1) (value "GND") (footprint "")
    )
    (path "/3c19fda9-55de-469e-9693-2d8993bca106/45be7be8-1b8d-4e8d-a22f-03cf4d5ee898"
      (reference "#PWR0605") (unit 1) (value "GND") (footprint "")
    )
    (path "/3c19fda9-55de-469e-9693-2d8993bca106/9b936e9f-a706-48dc-9f7e-c17e30a2fdc2"
      (reference "#PWR0606") (unit 1) (value "GND") (footprint "")
    )
    (path "/3c19fda9-55de-469e-9693-2d8993bca106/b85ed3b5-c035-4d26-aa05-210a6115e08a"
      (reference "#PWR0607") (unit 1) (value "GND") (footprint "")
    )
    (path "/3c19fda9-55de-469e-9693-2d8993bca106/9c81d559-649b-4b4d-8032-2e10f2fdacc6"
      (reference "#PWR0608") (unit 1) (value "GND") (footprint "")
    )
    (path "/3c19fda9-55de-469e-9693-2d8993bca106/046f9f3f-1d59-4151-8f09-5a11a47dbee6"
      (reference "#PWR0609") (unit 1) (value "GND") (footprint "")
    )
    (path "/3c19fda9-55de-469e-9693-2d8993bca106/5a4d6bfd-f8b3-4981-8668-0ea5d63394c6"
      (reference "#PWR0610") (unit 1) (value "GND") (footprint "")
    )
    (path "/3c19fda9-55de-469e-9693-2d8993bca106/451db685-3db2-49ee-b82e-c57d358bb13e"
      (reference "#PWR0611") (unit 1) (value "GND") (footprint "")
    )
    (path "/3c19fda9-55de-469e-9693-2d8993bca106/d8abf568-bed0-48d8-a24e-fc44bedff660"
      (reference "#PWR0612") (unit 1) (value "GND") (footprint "")
    )
    (path "/3c19fda9-55de-469e-9693-2d8993bca106/5050a159-db2a-44fd-9cb7-b23f924f1275"
      (reference "#PWR0613") (unit 1) (value "GND") (footprint "")
    )
    (path "/3c19fda9-55de-469e-9693-2d8993bca106/4dff0a8e-15b6-4ad4-9af2-e1592dfea4bc"
      (reference "#PWR0614") (unit 1) (value "GND") (footprint "")
    )
    (path "/3c19fda9-55de-469e-9693-2d8993bca106/4258d610-1ff6-4aa8-b511-96320fe3dd00"
      (reference "#PWR0615") (unit 1) (value "GND") (footprint "")
    )
    (path "/3c19fda9-55de-469e-9693-2d8993bca106/b34c095e-0a33-4dc4-a957-421ea1d68830"
      (reference "#PWR0616") (unit 1) (value "GND") (footprint "")
    )
    (path "/3c19fda9-55de-469e-9693-2d8993bca106/6207a4a4-c02f-415b-8c6f-114d9f4776c5"
      (reference "#PWR0617") (unit 1) (value "GND") (footprint "")
    )
    (path "/3c19fda9-55de-469e-9693-2d8993bca106/ede29f59-bc96-4aee-b1b6-c6c9869e3ab7"
      (reference "#PWR0618") (unit 1) (value "GND") (footprint "")
    )
    (path "/3c19fda9-55de-469e-9693-2d8993bca106/7cb3efc2-a96a-4d2a-bca6-3122b07363fc"
      (reference "#PWR0619") (unit 1) (value "GND") (footprint "")
    )
    (path "/3c19fda9-55de-469e-9693-2d8993bca106/04a4cb43-3430-4099-8cd6-124df4ba20be"
      (reference "#PWR0620") (unit 1) (value "GND") (footprint "")
    )
    (path "/3c19fda9-55de-469e-9693-2d8993bca106/c8b23225-720a-446d-8107-fee812af3998"
      (reference "#PWR0621") (unit 1) (value "GND") (footprint "")
    )
    (path "/3c19fda9-55de-469e-9693-2d8993bca106/60b3a79b-95f1-4a00-ac77-e4ece5b50692"
      (reference "#PWR0622") (unit 1) (value "GND") (footprint "")
    )
    (path "/3c19fda9-55de-469e-9693-2d8993bca106/eac415d1-2994-4fa8-8f0b-d092f6a8a689"
      (reference "#PWR0623") (unit 1) (value "GND") (footprint "")
    )
    (path "/3c19fda9-55de-469e-9693-2d8993bca106/cb56eb0a-be33-4e4c-bbd9-cf0920244ab1"
      (reference "#PWR0624") (unit 1) (value "GND") (footprint "")
    )
    (path "/3c19fda9-55de-469e-9693-2d8993bca106/a1838e64-af09-44ed-ae7d-e0d7ee66aad8"
      (reference "#PWR0625") (unit 1) (value "GND") (footprint "")
    )
    (path "/3c19fda9-55de-469e-9693-2d8993bca106/92dbbdb2-6bbf-4a62-a4fc-25b484962fd4"
      (reference "#PWR0626") (unit 1) (value "GND") (footprint "")
    )
    (path "/3c19fda9-55de-469e-9693-2d8993bca106/c0655606-aed7-4d8e-98c6-fd115439bebd"
      (reference "#PWR0627") (unit 1) (value "GND") (footprint "")
    )
    (path "/3c19fda9-55de-469e-9693-2d8993bca106/217abf60-3a40-4dd8-acdb-e667abf4d6f2"
      (reference "#PWR0628") (unit 1) (value "GND") (footprint "")
    )
    (path "/3c19fda9-55de-469e-9693-2d8993bca106/b298491c-04f7-431b-97a2-0c08cb644ec5"
      (reference "#PWR0629") (unit 1) (value "GND") (footprint "")
    )
    (path "/3c19fda9-55de-469e-9693-2d8993bca106/f5d418a9-5066-4276-9f1d-5880a8f1e0bf"
      (reference "#PWR0630") (unit 1) (value "GND") (footprint "")
    )
    (path "/3c19fda9-55de-469e-9693-2d8993bca106/217e2838-6c84-4b91-8773-282e1a044b14"
      (reference "#PWR0631") (unit 1) (value "GND") (footprint "")
    )
    (path "/7e10c94a-7591-4892-9351-18ebe562ea30/f94c34c0-495b-4a04-932f-a104dfbb4387"
      (reference "#PWR0701") (unit 1) (value "GND") (footprint "")
    )
    (path "/7e10c94a-7591-4892-9351-18ebe562ea30/668d2714-2659-4f31-9b9d-e656d508e0f7"
      (reference "#PWR0702") (unit 1) (value "GND") (footprint "")
    )
    (path "/7e10c94a-7591-4892-9351-18ebe562ea30/5a7a8c16-813c-4d39-bb38-4fe8173d3667"
      (reference "#PWR0703") (unit 1) (value "GND") (footprint "")
    )
    (path "/7e10c94a-7591-4892-9351-18ebe562ea30/5bbadc66-c8cb-40bb-b849-bf0cfb5b9bfd"
      (reference "#PWR0704") (unit 1) (value "GND") (footprint "")
    )
    (path "/7e10c94a-7591-4892-9351-18ebe562ea30/f7e200ad-0805-42f5-9f32-792f4044fcf7"
      (reference "#PWR0705") (unit 1) (value "GND") (footprint "")
    )
    (path "/7e10c94a-7591-4892-9351-18ebe562ea30/635b68a2-f1b0-4934-ad88-3936c4efc5ed"
      (reference "#PWR0706") (unit 1) (value "GND") (footprint "")
    )
    (path "/7e10c94a-7591-4892-9351-18ebe562ea30/c87a424a-a7eb-4797-a218-080412caf897"
      (reference "#PWR0707") (unit 1) (value "GND") (footprint "")
    )
    (path "/7e10c94a-7591-4892-9351-18ebe562ea30/30df379c-3e0f-4489-9643-f52ab2869b47"
      (reference "#PWR0708") (unit 1) (value "GND") (footprint "")
    )
    (path "/7e10c94a-7591-4892-9351-18ebe562ea30/59471a0d-1594-45da-b757-b7a334f78bef"
      (reference "#PWR0709") (unit 1) (value "GND") (footprint "")
    )
    (path "/7e10c94a-7591-4892-9351-18ebe562ea30/50e2510b-285f-450d-924c-851068760a2c"
      (reference "#PWR0710") (unit 1) (value "GND") (footprint "")
    )
    (path "/7e10c94a-7591-4892-9351-18ebe562ea30/39dd4899-db7b-4f42-9636-f6aaf1c5eb3e"
      (reference "#PWR0711") (unit 1) (value "GND") (footprint "")
    )
    (path "/7e10c94a-7591-4892-9351-18ebe562ea30/18b4b621-25c8-482c-9585-8628f30a19db"
      (reference "#PWR0712") (unit 1) (value "GND") (footprint "")
    )
    (path "/7e10c94a-7591-4892-9351-18ebe562ea30/579d842f-3904-450f-88a8-c83db7cf3e96"
      (reference "#PWR0713") (unit 1) (value "GND") (footprint "")
    )
    (path "/7e10c94a-7591-4892-9351-18ebe562ea30/949992fd-23e1-4d44-880a-20e1537ad010"
      (reference "#PWR0714") (unit 1) (value "GND") (footprint "")
    )
    (path "/7e10c94a-7591-4892-9351-18ebe562ea30/bb1ccad1-aac8-4064-b53d-1a0795f4b266"
      (reference "#PWR0715") (unit 1) (value "GND") (footprint "")
    )
    (path "/7e10c94a-7591-4892-9351-18ebe562ea30/57e5a784-f76d-4139-9381-01cf4838c415"
      (reference "#PWR0716") (unit 1) (value "GND") (footprint "")
    )
    (path "/3c19fda9-55de-469e-9693-2d8993bca106/ccee21d7-ccc7-491a-a23e-4baa7efdf326"
      (reference "C601") (unit 1) (value "1u") (footprint "Capacitor_SMD:C_0402_1005Metric")
    )
    (path "/3c19fda9-55de-469e-9693-2d8993bca106/55f95a5f-346b-40e7-9d47-3d3b43f40ad6"
      (reference "C602") (unit 1) (value "100n") (footprint "Capacitor_SMD:C_0402_1005Metric")
    )
    (path "/3c19fda9-55de-469e-9693-2d8993bca106/b505a834-86dd-4b6b-b361-b19a1551eee9"
      (reference "C603") (unit 1) (value "100n") (footprint "Capacitor_SMD:C_0402_1005Metric")
    )
    (path "/3c19fda9-55de-469e-9693-2d8993bca106/f38992c7-6309-45f1-87c0-ebd02f3d80ce"
      (reference "C604") (unit 1) (value "100n") (footprint "Capacitor_SMD:C_0402_1005Metric")
    )
    (path "/3c19fda9-55de-469e-9693-2d8993bca106/88c0f2e0-7edb-4085-8d1f-7d060d1fe5b7"
      (reference "C605") (unit 1) (value "10u") (footprint "Capacitor_SMD:C_0402_1005Metric")
    )
    (path "/3c19fda9-55de-469e-9693-2d8993bca106/2f1a9ef1-daff-4fd8-bcb5-1aaf1512479e"
      (reference "C606") (unit 1) (value "100n") (footprint "Capacitor_SMD:C_0402_1005Metric")
    )
    (path "/3c19fda9-55de-469e-9693-2d8993bca106/50e85761-696c-43cf-a30a-bd0ef3b7a5ca"
      (reference "C607") (unit 1) (value "100n") (footprint "Capacitor_SMD:C_0402_1005Metric")
    )
    (path "/3c19fda9-55de-469e-9693-2d8993bca106/92cc2291-9e82-4dd8-9a9f-28825ad7b077"
      (reference "C608") (unit 1) (value "100n") (footprint "Capacitor_SMD:C_0402_1005Metric")
    )
    (path "/3c19fda9-55de-469e-9693-2d8993bca106/0080fc64-8a49-485b-9a40-b39c02149a47"
      (reference "C609") (unit 1) (value "100n") (footprint "Capacitor_SMD:C_0402_1005Metric")
    )
    (path "/3c19fda9-55de-469e-9693-2d8993bca106/08f40bfb-cb08-4b43-8bf7-d1eaebfc92e1"
      (reference "C610") (unit 1) (value "1u") (footprint "Capacitor_SMD:C_0402_1005Metric")
    )
    (path "/3c19fda9-55de-469e-9693-2d8993bca106/7aa0c05d-6bb5-4e64-925a-797ffe5bee81"
      (reference "C611") (unit 1) (value "10u") (footprint "Capacitor_SMD:C_0402_1005Metric")
    )
    (path "/3c19fda9-55de-469e-9693-2d8993bca106/f5fd51ef-7bc7-4377-9d95-1f6bc59a27c1"
      (reference "C612") (unit 1) (value "1u") (footprint "Capacitor_SMD:C_0402_1005Metric")
    )
    (path "/3c19fda9-55de-469e-9693-2d8993bca106/cf390a2b-2688-40e1-81a8-133ad97cfa89"
      (reference "C613") (unit 1) (value "100n") (footprint "Capacitor_SMD:C_0402_1005Metric")
    )
    (path "/3c19fda9-55de-469e-9693-2d8993bca106/3c6410ed-a560-46b5-9660-00fb1d7c00e9"
      (reference "C614") (unit 1) (value "1u") (footprint "Capacitor_SMD:C_0402_1005Metric")
    )
    (path "/3c19fda9-55de-469e-9693-2d8993bca106/dc808f66-fbe6-422a-9dd6-d19d758e57d9"
      (reference "C615") (unit 1) (value "10u") (footprint "Capacitor_SMD:C_0402_1005Metric")
    )
    (path "/3c19fda9-55de-469e-9693-2d8993bca106/e2786750-1b67-4f44-8ca1-f3c6f0167c61"
      (reference "C616") (unit 1) (value "10u") (footprint "Capacitor_SMD:C_0402_1005Metric")
    )
    (path "/3c19fda9-55de-469e-9693-2d8993bca106/ccfd2e0e-69e6-4bea-8c5f-2d94c2ef664e"
      (reference "C617") (unit 1) (value "10u") (footprint "Capacitor_SMD:C_0402_1005Metric")
    )
    (path "/3c19fda9-55de-469e-9693-2d8993bca106/f88ab646-94fc-4060-9bf6-54772b77bfc2"
      (reference "C618") (unit 1) (value "10u") (footprint "Capacitor_SMD:C_0402_1005Metric")
    )
    (path "/3c19fda9-55de-469e-9693-2d8993bca106/1df4ad9c-1462-44c5-8a04-3c244e73dbdf"
      (reference "C619") (unit 1) (value "100n") (footprint "Capacitor_SMD:C_0402_1005Metric")
    )
    (path "/3c19fda9-55de-469e-9693-2d8993bca106/6c3b6b08-1280-4265-90ec-f17586e45717"
      (reference "C620") (unit 1) (value "100n") (footprint "Capacitor_SMD:C_0402_1005Metric")
    )
    (path "/3c19fda9-55de-469e-9693-2d8993bca106/dd0af254-52a2-4fd3-a9e5-6192291ccc84"
      (reference "C621") (unit 1) (value "100n") (footprint "Capacitor_SMD:C_0402_1005Metric")
    )
    (path "/3c19fda9-55de-469e-9693-2d8993bca106/4d2a2b48-428f-4274-9837-dc46ddeb34d1"
      (reference "C622") (unit 1) (value "100n") (footprint "Capacitor_SMD:C_0402_1005Metric")
    )
    (path "/3c19fda9-55de-469e-9693-2d8993bca106/ea0bf661-fcae-4ec1-bc92-425de3d7f8b9"
      (reference "C623") (unit 1) (value "100n") (footprint "Capacitor_SMD:C_0402_1005Metric")
    )
    (path "/3c19fda9-55de-469e-9693-2d8993bca106/a451943c-d1be-409f-af01-78785c59a4b8"
      (reference "C624") (unit 1) (value "100n") (footprint "Capacitor_SMD:C_0402_1005Metric")
    )
    (path "/3c19fda9-55de-469e-9693-2d8993bca106/42968efd-bc48-460b-83ec-9dd1397f3eca"
      (reference "C625") (unit 1) (value "100n") (footprint "Capacitor_SMD:C_0402_1005Metric")
    )
    (path "/3c19fda9-55de-469e-9693-2d8993bca106/aa56a833-c491-4cd5-a001-1a0439d5516b"
      (reference "C626") (unit 1) (value "100n") (footprint "Capacitor_SMD:C_0402_1005Metric")
    )
    (path "/3c19fda9-55de-469e-9693-2d8993bca106/b47c7f66-d9af-4335-a3ea-764822d6a685"
      (reference "C627") (unit 1) (value "100n") (footprint "Capacitor_SMD:C_0402_1005Metric")
    )
    (path "/3c19fda9-55de-469e-9693-2d8993bca106/51e89d64-15af-4550-ada2-721db4250b1f"
      (reference "C628") (unit 1) (value "100n") (footprint "Capacitor_SMD:C_0402_1005Metric")
    )
    (path "/3c19fda9-55de-469e-9693-2d8993bca106/95d0ac81-bcb4-4b8e-ab36-2ac1c65fdd9f"
      (reference "C629") (unit 1) (value "100n") (footprint "Capacitor_SMD:C_0402_1005Metric")
    )
    (path "/3c19fda9-55de-469e-9693-2d8993bca106/f61a3b1f-2d95-4a9c-9af4-9ee8a64dd1ac"
      (reference "C630") (unit 1) (value "100n") (footprint "Capacitor_SMD:C_0402_1005Metric")
    )
    (path "/3c19fda9-55de-469e-9693-2d8993bca106/05da2a2f-8aac-4f69-92b0-4622cd97ee54"
      (reference "C631") (unit 1) (value "100n") (footprint "Capacitor_SMD:C_0402_1005Metric")
    )
    (path "/3c19fda9-55de-469e-9693-2d8993bca106/e4cff055-c4f8-4367-a66e-53cba442da36"
      (reference "C632") (unit 1) (value "100n") (footprint "Capacitor_SMD:C_0402_1005Metric")
    )
    (path "/3c19fda9-55de-469e-9693-2d8993bca106/1bae8a9a-73a5-4b80-aafe-d6267ec1f9e3"
      (reference "C633") (unit 1) (value "100n") (footprint "Capacitor_SMD:C_0402_1005Metric")
    )
    (path "/3c19fda9-55de-469e-9693-2d8993bca106/85d55743-70e9-4bfc-a235-491aa25d6926"
      (reference "C634") (unit 1) (value "220p") (footprint "Capacitor_SMD:C_0402_1005Metric")
    )
    (path "/7e10c94a-7591-4892-9351-18ebe562ea30/e7e8ed8d-4df9-4204-93ee-c3c93707dcc6"
      (reference "C701") (unit 1) (value "1n") (footprint "Capacitor_SMD:C_0402_1005Metric")
    )
    (path "/7e10c94a-7591-4892-9351-18ebe562ea30/40d6773b-f995-4ae2-936b-0b3313e95fef"
      (reference "C702") (unit 1) (value "10p") (footprint "Capacitor_SMD:C_0402_1005Metric")
    )
    (path "/7e10c94a-7591-4892-9351-18ebe562ea30/7f198ec7-c600-404b-8dab-5c59483f2f1b"
      (reference "C703") (unit 1) (value "100n") (footprint "Capacitor_SMD:C_0402_1005Metric")
    )
    (path "/7e10c94a-7591-4892-9351-18ebe562ea30/efb7663b-478f-437d-8e78-460792d39854"
      (reference "C704") (unit 1) (value "1u") (footprint "Capacitor_SMD:C_0402_1005Metric")
    )
    (path "/7e10c94a-7591-4892-9351-18ebe562ea30/dca9abab-49c2-4d6d-88f5-a24a9063e847"
      (reference "C705") (unit 1) (value "100n") (footprint "Capacitor_SMD:C_0402_1005Metric")
    )
    (path "/7e10c94a-7591-4892-9351-18ebe562ea30/076eb927-3d46-4a02-9606-353f0ad48221"
      (reference "C706") (unit 1) (value "100n") (footprint "Capacitor_SMD:C_0402_1005Metric")
    )
    (path "/7e10c94a-7591-4892-9351-18ebe562ea30/ce1565db-6500-4f31-a794-5c49cde70b8a"
      (reference "C707") (unit 1) (value "100n") (footprint "Capacitor_SMD:C_0402_1005Metric")
    )
    (path "/7e10c94a-7591-4892-9351-18ebe562ea30/be0f6ff5-89d1-4987-92dc-0284b6ca8ea9"
      (reference "C708") (unit 1) (value "100n") (footprint "Capacitor_SMD:C_0402_1005Metric")
    )
    (path "/7e10c94a-7591-4892-9351-18ebe562ea30/ea17384f-96f5-440c-89c7-f5a1bb809037"
      (reference "C709") (unit 1) (value "100n") (footprint "Capacitor_SMD:C_0402_1005Metric")
    )
    (path "/7e10c94a-7591-4892-9351-18ebe562ea30/82ac7f36-0833-480e-b907-9745ca7ca4f9"
      (reference "C710") (unit 1) (value "1u") (footprint "Capacitor_SMD:C_0402_1005Metric")
    )
    (path "/7e10c94a-7591-4892-9351-18ebe562ea30/4e99f48c-87f3-4642-b35c-94486f34e961"
      (reference "C711") (unit 1) (value "1u") (footprint "Capacitor_SMD:C_0402_1005Metric")
    )
    (path "/7e10c94a-7591-4892-9351-18ebe562ea30/dc498d98-f25c-4794-8cda-adcd3dae7c5b"
      (reference "C712") (unit 1) (value "100p") (footprint "Capacitor_SMD:C_0402_1005Metric")
    )
    (path "/7e10c94a-7591-4892-9351-18ebe562ea30/7e9591ad-94d2-4f24-a989-4627684296dd"
      (reference "C713") (unit 1) (value "100p") (footprint "Capacitor_SMD:C_0402_1005Metric")
    )
    (path "/3c19fda9-55de-469e-9693-2d8993bca106/2b56563e-0e12-4baf-b355-75c24f5fba2a"
      (reference "D601") (unit 1) (value "RED") (footprint "LED_SMD:LED_0402_1005Metric")
    )
    (path "/3c19fda9-55de-469e-9693-2d8993bca106/84dbf505-ea44-4872-be2e-3ed18d10cdee"
      (reference "D602") (unit 1) (value "GREEN") (footprint "LED_SMD:LED_0402_1005Metric")
    )
    (path "/3c19fda9-55de-469e-9693-2d8993bca106/31594cc7-327d-41b0-a0aa-6694787c2e30"
      (reference "D603") (unit 1) (value "AMBER") (footprint "LED_SMD:LED_0402_1005Metric")
    )
    (path "/3c19fda9-55de-469e-9693-2d8993bca106/9fe800e2-e89c-43bf-8c84-eea2a87f04d0"
      (reference "FB601") (unit 1) (value "FerriteBead_Small") (footprint "Inductor_SMD:L_0603_1608Metric")
    )
    (path "/7e10c94a-7591-4892-9351-18ebe562ea30/6fa439f0-7fe8-4a10-b53a-eb3892ad4bc6"
      (reference "FB701") (unit 1) (value "FerriteBead_Small") (footprint "Inductor_SMD:L_0603_1608Metric")
    )
    (path "/db120c4d-0b56-4c60-a541-7562d7b98821"
      (reference "H101") (unit 1) (value "MountingHole_2.5mm_Pad") (footprint "MountingHole:MountingHole_2.5mm_Pad")
    )
    (path "/64a51b09-0503-49b7-b546-ff1255161802"
      (reference "H102") (unit 1) (value "MountingHole_2.5mm_Pad") (footprint "MountingHole:MountingHole_2.5mm_Pad")
    )
    (path "/526adbdc-849c-4286-afdf-1bbf486d67e3"
      (reference "H103") (unit 1) (value "MountingHole_2.5mm_Pad") (footprint "MountingHole:MountingHole_2.5mm_Pad")
    )
    (path "/52df3d68-78ff-48ce-9ceb-30c61f32fcae"
      (reference "H104") (unit 1) (value "MountingHole_2.5mm_Pad") (footprint "MountingHole:MountingHole_2.5mm_Pad")
    )
    (path "/b7f72b91-9c14-412e-8d5b-9546c79f0c93"
      (reference "J101") (unit 1) (value "MCU") (footprint "Connector_Molex:Molex_PicoBlade_53261-1471_1x14-1MP_P1.25mm_Horizontal")
    )
    (path "/dd87a3f1-d015-44f9-8f09-63bc9fedb74d"
      (reference "J102") (unit 1) (value "Conn_Coaxial") (footprint "Connector_Coaxial:U.FL_Hirose_U.FL-R-SMT-1_Vertical")
    )
    (path "/9a51fd09-eca3-427d-8f96-6eda33983388"
      (reference "J103") (unit 1) (value "JTAG") (footprint "Connector_Molex:Molex_PicoBlade_53261-0671_1x06-1MP_P1.25mm_Horizontal")
    )
    (path "/133a1425-e565-427b-b608-18186567d51d"
      (reference "J104") (unit 1) (value "RFFE") (footprint "Connector_Molex:Molex_PicoBlade_53261-0371_1x03-1MP_P1.25mm_Horizontal")
    )
    (path "/3c19fda9-55de-469e-9693-2d8993bca106/2c45263a-a96f-46db-9cf8-a704dcb7d36c"
      (reference "NT601") (unit 1) (value "Net-Tie_2") (footprint "NetTie:NetTie-2_SMD_Pad0.5mm")
    )
    (path "/7e10c94a-7591-4892-9351-18ebe562ea30/b4ed5b0d-3007-4698-9f7e-3c8aa45719af"
      (reference "NT701") (unit 1) (value "Net-Tie_2") (footprint "NetTie:NetTie-2_SMD_Pad0.5mm")
    )
    (path "/b32face3-6a09-493e-a59d-ec6310cc7169"
      (reference "PQ101") (unit 1) (value "PQ9-Connector") (footprint "Connector_PinSocket_2.00mm:PinSocket_1x09_P2.00mm_Vertical")
    )
    (path "/3c19fda9-55de-469e-9693-2d8993bca106/117817db-7422-46b9-88c0-38af53c73d1f"
      (reference "Q601") (unit 1) (value "Q_NMOS_GSD") (footprint "Package_TO_SOT_SMD:SOT-523")
    )
    (path "/3c19fda9-55de-469e-9693-2d8993bca106/fa795b0c-cdf7-415e-8daf-25f2b2c8b5e6"
      (reference "R601") (unit 1) (value "10k") (footprint "Resistor_SMD:R_0402_1005Metric")
    )
    (path "/3c19fda9-55de-469e-9693-2d8993bca106/110cda96-69c6-40a4-8a48-f213ca43a51d"
      (reference "R602") (unit 1) (value "2.2k") (footprint "Resistor_SMD:R_0402_1005Metric")
    )
    (path "/3c19fda9-55de-469e-9693-2d8993bca106/dc9ceba7-f0e2-432f-b1dd-d00e35806546"
      (reference "R603") (unit 1) (value "10k") (footprint "Resistor_SMD:R_0402_1005Metric")
    )
    (path "/3c19fda9-55de-469e-9693-2d8993bca106/c075e025-58fd-45d1-8a69-af7a9ca099d5"
      (reference "R604") (unit 1) (value "100") (footprint "Resistor_SMD:R_0402_1005Metric")
    )
    (path "/3c19fda9-55de-469e-9693-2d8993bca106/75eb803c-de21-4f39-b6ec-834a97f286aa"
      (reference "R605") (unit 1) (value "100") (footprint "Resistor_SMD:R_0402_1005Metric")
    )
    (path "/3c19fda9-55de-469e-9693-2d8993bca106/8c2c84e2-4c45-4fc5-8e34-90111f48b641"
      (reference "R606") (unit 1) (value "1k") (footprint "Resistor_SMD:R_0402_1005Metric")
    )
    (path "/3c19fda9-55de-469e-9693-2d8993bca106/ff9a2c4e-2b56-4901-8019-7f4eeb4f7312"
      (reference "R607") (unit 1) (value "4.7k") (footprint "Resistor_SMD:R_0402_1005Metric")
    )
    (path "/3c19fda9-55de-469e-9693-2d8993bca106/8cc0fa7e-b320-4a52-84c3-127f345edead"
      (reference "R608") (unit 1) (value "4.7k") (footprint "Resistor_SMD:R_0402_1005Metric")
    )
    (path "/3c19fda9-55de-469e-9693-2d8993bca106/c21cf5be-85ee-4cd8-9727-43508a546cea"
      (reference "R609") (unit 1) (value "4.7k") (footprint "Resistor_SMD:R_0402_1005Metric")
    )
    (path "/3c19fda9-55de-469e-9693-2d8993bca106/e1f41289-b6ee-4dff-a1c9-32fbf0be1ec6"
      (reference "R610") (unit 1) (value "1k") (footprint "Resistor_SMD:R_0402_1005Metric")
    )
    (path "/3c19fda9-55de-469e-9693-2d8993bca106/d8eb858e-25ed-407f-af1f-a03e8b744a4e"
      (reference "R611") (unit 1) (value "2M") (footprint "Resistor_SMD:R_0402_1005Metric")
    )
    (path "/3c19fda9-55de-469e-9693-2d8993bca106/48e969a2-43af-4ce1-8a9c-2e53ac20c0a2"
      (reference "R612") (unit 1) (value "2.2k") (footprint "Resistor_SMD:R_0402_1005Metric")
    )
    (path "/3c19fda9-55de-469e-9693-2d8993bca106/5170f994-716a-4a91-a691-8551abc5b42c"
      (reference "R613") (unit 1) (value "10k") (footprint "Resistor_SMD:R_0402_1005Metric")
    )
    (path "/3c19fda9-55de-469e-9693-2d8993bca106/dabc1824-456b-4501-a26e-49cbc8763810"
      (reference "R614") (unit 1) (value "10k") (footprint "Resistor_SMD:R_0402_1005Metric")
    )
    (path "/3c19fda9-55de-469e-9693-2d8993bca106/ea6b3fde-7307-470a-a8b8-e20791d5965a"
      (reference "R615") (unit 1) (value "2.2k") (footprint "Resistor_SMD:R_0402_1005Metric")
    )
    (path "/3c19fda9-55de-469e-9693-2d8993bca106/f78a285b-be9e-4741-b9e9-60bd01559d0b"
      (reference "R616") (unit 1) (value "4.7k") (footprint "Resistor_SMD:R_0402_1005Metric")
    )
    (path "/3c19fda9-55de-469e-9693-2d8993bca106/3f6df2d0-d8ce-4c4d-874e-02f0769555a1"
      (reference "R617") (unit 1) (value "4.7k") (footprint "Resistor_SMD:R_0402_1005Metric")
    )
    (path "/3c19fda9-55de-469e-9693-2d8993bca106/f58f6b7a-5abe-42d5-92a7-6524c54ddb0f"
      (reference "R618") (unit 1) (value "4.7k") (footprint "Resistor_SMD:R_0402_1005Metric")
    )
    (path "/3c19fda9-55de-469e-9693-2d8993bca106/ba62a079-2ddd-41c4-923f-29aceb1a13e9"
      (reference "R619") (unit 1) (value "10k") (footprint "Resistor_SMD:R_0402_1005Metric")
    )
    (path "/7e10c94a-7591-4892-9351-18ebe562ea30/87dc1565-4e60-4710-a87c-80f20d4d883c"
      (reference "R701") (unit 1) (value "100") (footprint "Resistor_SMD:R_0402_1005Metric")
    )
    (path "/7e10c94a-7591-4892-9351-18ebe562ea30/80aa8240-b182-45b1-bd96-4b2cb6340d6c"
      (reference "R702") (unit 1) (value "100") (footprint "Resistor_SMD:R_0402_1005Metric")
    )
    (path "/7e10c94a-7591-4892-9351-18ebe562ea30/732e8305-8542-4ec9-a6f9-891c40c52084"
      (reference "R703") (unit 1) (value "10k") (footprint "Resistor_SMD:R_0402_1005Metric")
    )
    (path "/7e10c94a-7591-4892-9351-18ebe562ea30/dfc3633f-55bc-4e6d-bdf0-26a787b4081c"
      (reference "R704") (unit 1) (value "470") (footprint "Resistor_SMD:R_0402_1005Metric")
    )
    (path "/7e10c94a-7591-4892-9351-18ebe562ea30/6d0c9227-9fa4-4fdd-a7a1-f5cf102ac4cd"
      (reference "R705") (unit 1) (value "100k") (footprint "Resistor_SMD:R_0402_1005Metric")
    )
    (path "/7e10c94a-7591-4892-9351-18ebe562ea30/3e338bf1-74fa-49df-9a95-4c68e37a41a1"
      (reference "R706") (unit 1) (value "10k") (footprint "Resistor_SMD:R_0402_1005Metric")
    )
    (path "/7e10c94a-7591-4892-9351-18ebe562ea30/9afe1561-2eca-4b84-b2fb-3211f937f20e"
      (reference "R707") (unit 1) (value "3.6k") (footprint "Resistor_SMD:R_0402_1005Metric")
    )
    (path "/7e10c94a-7591-4892-9351-18ebe562ea30/cc77dd8c-304d-4418-8696-764fa1ed0ac2"
      (reference "R708") (unit 1) (value "10k") (footprint "Resistor_SMD:R_0402_1005Metric")
    )
    (path "/3c19fda9-55de-469e-9693-2d8993bca106/062449b5-17eb-40bf-8fd8-c3da6187d593"
      (reference "RN601") (unit 1) (value "470") (footprint "Resistor_SMD:R_Array_Convex_4x0402")
    )
    (path "/3c19fda9-55de-469e-9693-2d8993bca106/5ce96e35-d711-4735-bc07-243bb6042c40"
      (reference "RN602") (unit 1) (value "4.7k") (footprint "Resistor_SMD:R_Array_Convex_4x0402")
    )
    (path "/7e10c94a-7591-4892-9351-18ebe562ea30/e5c9e5a1-eb3c-47d6-be9a-b6b058a3d5d9"
      (reference "RN701") (unit 1) (value "470") (footprint "Resistor_SMD:R_Array_Convex_4x0402")
    )
    (path "/7e10c94a-7591-4892-9351-18ebe562ea30/2a60f83f-710a-485c-8096-acba227c5800"
      (reference "T701") (unit 1) (value "Transformer_1P_1S") (footprint "lsf-kicad-lib:ATB2012")
    )
    (path "/93a91a74-38ac-4ff0-9fb4-e88bd99a5425"
      (reference "TP101") (unit 1) (value "3V3") (footprint "lsf-kicad-lib:TestPoint_D0.8mm_Mask-Only")
    )
    (path "/53a9138e-5c0b-41fd-9633-75919dc38c74"
      (reference "TP102") (unit 1) (value "CLKO") (footprint "TestPoint:TestPoint_Pad_D1.0mm")
    )
    (path "/3c19fda9-55de-469e-9693-2d8993bca106/fc5e9d00-de62-4435-a259-f4775d8b2df5"
      (reference "TP601") (unit 1) (value "3V3") (footprint "lsf-kicad-lib:TestPoint_D0.8mm_Mask-Only")
    )
    (path "/3c19fda9-55de-469e-9693-2d8993bca106/10d9bd28-a34a-454c-bf2d-29e14f8e9c9e"
      (reference "TP602") (unit 1) (value "2V5") (footprint "lsf-kicad-lib:TestPoint_D0.8mm_Mask-Only")
    )
    (path "/3c19fda9-55de-469e-9693-2d8993bca106/bfd20a7b-366a-4ae1-b118-e4b2c68aeb0b"
      (reference "TP603") (unit 1) (value "1V1") (footprint "lsf-kicad-lib:TestPoint_D0.8mm_Mask-Only")
    )
    (path "/3c19fda9-55de-469e-9693-2d8993bca106/b44fc5e5-cbc9-4f84-b155-32189c4dd57c"
      (reference "TP604") (unit 1) (value "IO1") (footprint "TestPoint:TestPoint_Pad_D1.0mm")
    )
    (path "/3c19fda9-55de-469e-9693-2d8993bca106/b6f1da83-c72b-4591-9bbd-22fdf79b7095"
      (reference "TP605") (unit 1) (value "IO0") (footprint "TestPoint:TestPoint_Pad_D1.0mm")
    )
    (path "/3c19fda9-55de-469e-9693-2d8993bca106/9325ef7e-3998-4a98-843a-4004f259ce47"
      (reference "TP606") (unit 1) (value "GND") (footprint "TestPoint:TestPoint_Pad_D1.0mm")
    )
    (path "/3c19fda9-55de-469e-9693-2d8993bca106/f515255d-bc47-4a30-814e-db03d3b02c27"
      (reference "TP607") (unit 1) (value "OSC_OE") (footprint "lsf-kicad-lib:TestPoint_D0.8mm_Mask-Only")
    )
    (path "/3c19fda9-55de-469e-9693-2d8993bca106/6ba12835-f91a-494f-b380-2ffaadc77cd2"
      (reference "TP608") (unit 1) (value "GND") (footprint "lsf-kicad-lib:TestPoint_D0.8mm_Mask-Only")
    )
    (path "/7e10c94a-7591-4892-9351-18ebe562ea30/d45a657c-7055-4456-90be-03b4c5aa393b"
      (reference "TP701") (unit 1) (value "TRX_3V3") (footprint "lsf-kicad-lib:TestPoint_D0.8mm_Mask-Only")
    )
    (path "/3c19fda9-55de-469e-9693-2d8993bca106/aa95fcf5-f815-4b88-b048-80e5b88f6302"
      (reference "U601") (unit 1) (value "DIO7527AST6") (footprint "Package_TO_SOT_SMD:SOT-23-6")
    )
    (path "/3c19fda9-55de-469e-9693-2d8993bca106/55a67119-4c32-439e-943b-e6f084d912bd"
      (reference "U602") (unit 1) (value "LFE5UM-45F-6BG381x") (footprint "Package_BGA:Lattice_caBGA-381_17.0x17.0mm_Layout20x20_P0.8mm_Ball0.4mm_Pad0.4mm_NSMD")
    )
    (path "/3c19fda9-55de-469e-9693-2d8993bca106/5c35eed2-24b1-4c92-bba6-9460eef78ecf"
      (reference "U602") (unit 2) (value "LFE5UM-45F-6BG381x") (footprint "Package_BGA:Lattice_caBGA-381_17.0x17.0mm_Layout20x20_P0.8mm_Ball0.4mm_Pad0.4mm_NSMD")
    )
    (path "/3c19fda9-55de-469e-9693-2d8993bca106/e589bdea-e725-4b47-89c6-0ef2504331ed"
      (reference "U602") (unit 4) (value "LFE5UM-45F-6BG381x") (footprint "Package_BGA:Lattice_caBGA-381_17.0x17.0mm_Layout20x20_P0.8mm_Ball0.4mm_Pad0.4mm_NSMD")
    )
    (path "/3c19fda9-55de-469e-9693-2d8993bca106/8f19b3d5-5e58-47db-8cb9-3ef671d6dfb6"
      (reference "U602") (unit 5) (value "LFE5UM-45F-6BG381x") (footprint "Package_BGA:Lattice_caBGA-381_17.0x17.0mm_Layout20x20_P0.8mm_Ball0.4mm_Pad0.4mm_NSMD")
    )
    (path "/3c19fda9-55de-469e-9693-2d8993bca106/df8f126f-77dc-4b5e-a9a7-f4796418cc64"
      (reference "U602") (unit 8) (value "LFE5UM-45F-6BG381x") (footprint "Package_BGA:Lattice_caBGA-381_17.0x17.0mm_Layout20x20_P0.8mm_Ball0.4mm_Pad0.4mm_NSMD")
    )
    (path "/3c19fda9-55de-469e-9693-2d8993bca106/23af37e7-a590-4599-9896-dca397a0f8e3"
      (reference "U602") (unit 9) (value "LFE5UM-45F-6BG381x") (footprint "Package_BGA:Lattice_caBGA-381_17.0x17.0mm_Layout20x20_P0.8mm_Ball0.4mm_Pad0.4mm_NSMD")
    )
    (path "/3c19fda9-55de-469e-9693-2d8993bca106/3e63c51f-c83a-4322-9c1e-f64316ffcaa6"
      (reference "U602") (unit 10) (value "LFE5UM-45F-6BG381x") (footprint "Package_BGA:Lattice_caBGA-381_17.0x17.0mm_Layout20x20_P0.8mm_Ball0.4mm_Pad0.4mm_NSMD")
    )
    (path "/3c19fda9-55de-469e-9693-2d8993bca106/034dccee-61b8-499a-9db5-75783f42057c"
      (reference "U603") (unit 1) (value "MIC5504-2.5YMT") (footprint "Package_DFN_QFN:UDFN-4-1EP_1x1mm_P0.65mm_EP0.48x0.48mm")
    )
    (path "/3c19fda9-55de-469e-9693-2d8993bca106/d8e2d19a-873e-446c-86dd-501a53636ba7"
      (reference "U604") (unit 1) (value "LP5912-1.1") (footprint "Package_SON:WSON-6-1EP_2x2mm_P0.65mm_EP1x1.6mm_ThermalVias")
    )
    (path "/3c19fda9-55de-469e-9693-2d8993bca106/eaadcced-de6a-4f90-8ebd-30f4a7a45054"
      (reference "U605") (unit 1) (value "IS25LE512M-xM") (footprint "Package_SO:SOIC-16W_7.5x10.3mm_P1.27mm")
    )
    (path "/3c19fda9-55de-469e-9693-2d8993bca106/6d8f3070-08b4-44bb-8a98-c3753cd21cad"
      (reference "U606") (unit 1) (value "SiT1602BI-71-33E-26.000000E") (footprint "Crystal:Crystal_SMD_2016-4Pin_2.0x1.6mm")
    )
    (path "/7e10c94a-7591-4892-9351-18ebe562ea30/37a13556-8115-4188-a66b-25cd57806830"
      (reference "U701") (unit 1) (value "TG2016SMN") (footprint "lsf-kicad-lib:TG2016SMN")
    )
    (path "/7e10c94a-7591-4892-9351-18ebe562ea30/e17292b9-af59-4b7a-b9f7-adfce246933a"
      (reference "U702") (unit 1) (value "AT86RF215M") (footprint "Package_DFN_QFN:QFN-48-1EP_7x7mm_P0.5mm_EP5.6x5.6mm")
    )
    (path "/7e10c94a-7591-4892-9351-18ebe562ea30/fdc1fda6-ca9b-4f9f-9379-5a72a456b179"
      (reference "U703") (unit 1) (value "DIO7527AST6") (footprint "Package_TO_SOT_SMD:SOT-23-6")
    )
  )
)
